"1 "," 774 "," Salamet Ali "," 0302-7474066"
"1 "," 775 "," Liaqat Ali  "," 0302-7734157"
"1 "," 776 "," Abdul-Rasheed "," 0302-7723185"
"1 "," 777 "," Khaleel Ahmed "," 0302-7723185"
"1 "," 778 "," Saber Ali "," 0306-9429628"
"1 "," 779 "," Muhammad Manzoor "," 0306-9429628"
"1 "," 780 "," Fooji Muhammad Iqbal "," 0300-7019315"
"1 "," 781 "," Muhammad Irfan "," 0302-2481894"
"1 "," 782 "," Nazir Ahmed "," 0306-4196962"
"1 "," 783 "," Muhammad Jameel "," 0302-7941157"
"1 "," 784 "," Imdaad Hussain "," 0301-7356607"
"1 "," 785 "," Muhammad Saleen Anwar "," 0301-7726323"
"1 "," 786 "," Mistry Muhammad Ibraheem "," 0306-7940057"
"1 "," 787 "," Muhammad Sajad  "," 0304-3534548"
"1 "," 788 "," Muhammad Bashir "," 0308-4686023"
"1 "," 789 "," Nazam Deen "," 0334-9771669"
"1 "," 790 "," Muhammad Ishaq "," 0331-4132552"
"1 "," 791 "," Muhammad Riaz "," 0347-7793749"
"1 "," 792 "," Fooji Muhammad Abaas "," 0331-7723157"
"1 "," 793 "," Muhammad Ramzan Ansari "," 0331-7723157"
"1 "," 794 "," Muhammad Deen Watoo "," 0301-79441857"
"1 "," 795 "," Abdul Star "," 0303-6170772"
"1 "," 796 "," Abdul Jabar "," 0303-6178368"
"1 "," 797 "," Muhammad Arshad "," 0305-6499826"
"1 "," 798 "," Haji Muhammad Anait "," 0301-45636974"
"1 "," 799 "," Muhammad Abid Chokidar "," 0307-3061305"
"1 "," 800 "," Muhammad Bashir "," 0334-6432457"
"1 "," 801 "," Muhammad Hussain "," 0342-4009170"
"1 "," 802 "," Haji muhammad Akber "," 0301-4457510"
"1 "," 803 "," Muhammad Ashraf "," 0308-8845900"
"1 "," 804 "," Haji Muhammad Asgar "," 0307-6845063"
"1 "," 805 "," Dr Saber Ali "," 0321-7732850"
"1 "," 806 "," Muhammad Anwar "," 0308-6592001"
"1 "," 807 "," Muhammad Munsha "," 0343-6978419"
"1 "," 808 "," Muhammad Anait "," 0344-3369508"
"1 "," 809 "," Abdul Khaliq "," 0308-7301729"
"1 "," 810 "," Muhammad Ishaq "," 3006102821"
"1 "," 811 "," Ahmed Deen watoo   "," 0301-7933441"
"1 "," 812 "," Zulafquar watoo "," 0300-63870923"
"1 "," 813 "," Baba Makhan Khan watoo "," 0304-4234900"
"1 "," 814 "," Rasheed Ahmed "," 03041-3131701"
"1 "," 815 "," Muhammad Shafie "," 0301-7947954"
"1 "," 816 "," Muhammad Shaheen "," 0301-7947954"
"1 "," 817 "," Muhammad Aslam mistry "," 0303-6944712"
"1 "," 818 "," Muhammad Munir ansari "," 0341-4218890"
"1 "," 819 "," Mubasher Hussain "," 0302-4097724"
"1 "," 820 "," Ahmed Deen  "," 0302-4735935"
"1 "," 821 "," Abdul Latif "," 0300-7769889"
"1 "," 822 "," Ibraheem mochi "," 0345-4133757"
"1 "," 823 "," Muhammad Nazir "," 0343-7350157"
"1 "," 824 "," Muhammad Rafiq Master "," 0301-4596090"
"1 "," 825 "," Muhammad Arif Darzi "," 0301-4596090"
"1 "," 826 "," Muhammad Maalik "," 0341-7138607"
"1 "," 827 "," Muhammad Bashir "," 0308-2156147"
"1 "," 828 "," Sharif Ahmed "," 0301-2899057"
"1 "," 829 "," Abdul Satar "," 0302-7736112"
"1 "," 830 "," Muhammad Tufail "," 0300-4438157"
"1 "," 831 "," Muhammad Sadiq "," 0307-6383986"
"1 "," 832 "," Muhammad Rafiq Master "," 0341-4983257"
"1 "," 833 "," Muhammad Faiz "," 0344-8680711"
"1 "," 834 "," Abdul Razaq  "," 0302-7943157"
"1 "," 835 "," Farooq Ahmed "," 0304-6915610"
"1 "," 836 "," Muhammad Javed "," 0301-7930927"
"1 "," 837 "," Muhammad Waseem "," 0307-2212123"
"1 "," 838 "," Muhammad Bashir "," 0304-6491067"
"1 "," 839 "," Nazir Ahmed "," 0307-2900060"
"1 "," 840 "," Muhammad Arshad "," 0301-7944157"
"1 "," 841 "," Faiz Ahmed "," 0301-7944157"
"1 "," 842 "," Muhammad saleem Gujar "," 0302-7943157"
"1 "," 843 "," Muhammad Riaz  "," 0303-6178364"
"1 "," 844 "," Muhammad Mazher "," 0303-6178364"
"1 "," 845 "," Muhammad Ishaq "," 0307-6377994"
"1 "," 846 "," Muhammad Aashiq "," 0313-6499362"
"1 "," 847 "," Muhammad Waseem Saleem "," 0302-7330958"
"1 "," 848 "," Altaf Hussain "," 0304-9832873"
"1 "," 849 "," Lal Deen "," 0306-7889139"
"1 "," 850 "," Naiz Ahmed watoo "," 0303-9402057"
"1 "," 851 "," Muhammad Islam Joya "," 0307-6841355"
"1 "," 852 "," Muhammad Tufail "," 0308-8355751"
"1 "," 853 "," Abdul Ghafoor "," 0305-8681257"
"1 "," 854 "," Muhammad Insha watoo "," 0300-6575157"
"1 "," 855 "," Abdul Ghafar watoo "," 0308-7948057"
"1 "," 856 "," Abdul Jabar "," 0301-7064338"
"1 "," 857 "," Muhammad Mansha Mahar "," 0307-2351257"
"1 "," 858 "," Master Khurshed watoo "," 0300-6102821"
"1 "," 859 "," Muhammad Riaz mahar "," 0345-2809157"
"1 "," 860 "," Muhammad Tufail "," 0346-7832157"
"1 "," 861 "," Molvi Mushaq Ahmed "," 0304-7492157"
"1 "," 862 "," Muhammad Sharif  "," 0307-7366509"
"1 "," 863 "," Mumtaz Hussain "," 0305-9132058"
"1 "," 864 "," Dr Muhammad Yaseen "," 0301-4277133"
"1 "," 865 "," Abdul Star "," 0302-4623516"
"1 "," 866 "," Mumir Ahmed "," 0302-6583744"
"1 "," 867 "," Zulafquar Ali "," 0301-6587998"
"1 "," 868 "," Ajaz Ahmed "," 0300-6515457"
"1 "," 869 "," Muhammad Ishaq "," 0304-9632499"
"1 "," 870 "," Muhammad Shaber "," 0304-17271057"
"1 "," 871 "," Muhammad Akram "," 0304-1727057"
"1 "," 872 "," Muhammad Rafiq "," 0304-0691757"
"1 "," 873 "," Haji Khushi Muhammad  "," 0300-2757157"
"1 "," 874 "," Muhammad Jafar  "," 0303-5693305"
"1 "," 875 "," Muhammad Adrees  "," 0344-4749435"
"1 "," 876 "," Muhammad Sharif  "," 0306-2058670"
"1 "," 877 "," Muhammad Arshad "," 0304-7456732"
"1 "," 878 "," Muhammad Yousaf Persasi "," 0307-6381170"
"1 "," 879 "," Muhammad Aslam  "," 0301-3664357"
"1 "," 880 "," Muhammad Matloob "," 0301-7945277"
"1 "," 881 "," Abdul Shakoor "," 0302-6378257"
"1 "," 882 "," Zahoor Ahmed "," 0303-7357738"
"1 "," 883 "," Gulam Mustafa "," 0306-2190945"
"1 "," 884 "," Abdul Ghafar watoo "," 0345-7504409"
"1 "," 885 "," Muhammad Maqbool "," 0307-4672913"
"1 "," 886 "," Janhagir Ahmed "," 0308-8264082"
"1 "," 887 "," Muhammad Shazad "," 0605-5886965"
"1 "," 888 "," Muhammad Ahsan "," 0302-6904516"
"1 "," 889 "," Kala king Man "," 0343-7273157"
"1 "," 890 "," Abdul Aziz "," 0300-7277429"
"1 "," 891 "," Munawar Hussain "," 0301-2808068"
"1 "," 892 "," Muhammad Iqbal "," 0302-3575054"
"1 "," 893 "," Abid Nawaz "," 0302-3575054"
"1 "," 894 "," Shazad Ahmed "," 0307-6126100"
"1 "," 895 "," Baniamin "," 0301-6579304"
"1 "," 896 "," Nadeem Ahmed "," 0301-4638478"
"1 "," 897 "," Muhammad Ashraf "," 0308-6003927"
"1 "," 898 "," Shahan Ahmed "," 0304-3534557"
"1 "," 899 "," Muhammad Ramzan "," 0308-8646046"
"1 "," 900 "," Muhammad munir   "," 0302-7734561"
"1 "," 901 "," Muhammad Iqbal "," 0301-6572519"
"1 "," 902 "," Haji Muhammad Bashir "," 0303-6170462"
"1 "," 903 "," Muhammad Tufail "," 0300-7738449"
"1 "," 904 "," Zahoor Ahmed "," 0301-4290172"
"1 "," 905 "," Muzafar mazaher "," 0303-4485792"
"1 "," 906 "," Gulam Rasool "," 0304-9882856"
"1 "," 907 "," Muhammad Jameel "," 0306-4598557"
"1 "," 908 "," Molvi Muhammad Iqbal  "," 0307-7858657"
"1 "," 909 "," Haji Faqeer Muhammad "," 3447320015"
"1 "," 910 "," Muhammad Iqbal "," 0301-6572519"
"1 "," 911 "," Rana Manhdi Hassan "," 0301-6572519"
"1 "," 912 "," Muhammad Suraaj "," 0301-6686202"
"1 "," 913 "," Muhammad Hanif Hujam "," 0301-6686202"
"1 "," 914 "," Molvi Shabaz Noori "," 0305-8373927"
"1 "," 915 "," Muhammad Niaz "," 0303-5445198"
"1 "," 916 "," Muhammad Ismaeel "," 0303-5445198"
"1 "," 917 "," Haji Bagh Ali "," 0304-8654653"
"1 "," 918 "," Muhammad Arshad  "," 0308-6515202"
"1 "," 919 "," Muhammad Ramzan "," 0301-7938544"
"1 "," 920 "," Akhter Hussain "," 0306-4188187"
"1 "," 921 "," Muhammad Bashir "," 0306-4188187"
"1 "," 922 "," Shokat Ali "," 0304-7652990"
"1 "," 923 "," Niamat Ali "," 0302-7992159"
"1 "," 924 "," Abdul Qader "," 0301-7947491"
"1 "," 925 "," Abdul Shakoor "," 0306-7040045"
"1 "," 926 "," Muhammad Ameer Hujam "," 0301-4015358"
"1 "," 927 "," Muhammad Riaz "," 3421892687"
"1 "," 928 "," Muhammad Farooq "," 0300-7739357"
"1 "," 929 "," Ajaz Ahmed "," 0303-8099047"
"1 "," 930 "," Muhammad Amar "," 0302-6152936"
"1 "," 931 "," Aftab Ahmed "," 0347-6390700"
"1 "," 932 "," Muhammad Luqman "," 0303-5448591"
"1 "," 933 "," Qurban Ahmed "," 0301-5304191"
"1 "," 934 "," Haji Muhammad Ameer "," 0300-7732105"
"1 "," 935 "," Raouf Ahmed "," 0301-7933157"
"1 "," 936 "," Muhammad Shafee "," 0308-5690641"
"1 "," 937 "," Muhammad Aslam "," 0301-7943157"
"1 "," 938 "," Muhammad Imran "," 0306-7355950"
"1 "," 939 "," Zanul Abedeen "," 0305-6721461"
"1 "," 940 "," Muhammad Arshad "," 0301-3336066"
"1 "," 941 "," Muhammad Qasim "," 0301-7937417"
"1 "," 942 "," Muhammad Serwar "," 0300-3465041"
"1 "," 943 "," Muhammd Safdar "," 0300-4765279"
"1 "," 944 "," Muhammd Deen "," 0301-5619157"
"1 "," 945 "," Muhammad Sarwar "," 0301-561915"
"1 "," 946 "," Muhammad Maqbool "," 0342-3104051"
"1 "," 947 "," Abdul Gafoor "," 0305-5166744"
"1 "," 948 "," Nazir Ahmed "," 0303-9676959"
"1 "," 949 "," Muhammad Anwar "," 0307-3784098"
"1 "," 950 "," Zulfaqar Ahmed "," 0301-6579169"
"1 "," 951 "," Muhammad Zahid Mubsher "," 0305-6602957"
"1 "," 952 "," Samie Ullah "," 0307-8922120"
"1 "," 953 "," Muhammad Akram "," 0308-2984164"
"1 "," 954 "," Muhammad Saleen   "," 0301-7943548"
"1 "," 955 "," Ghulam Nabi Joya "," 0303-7858357"
"1 "," 956 "," Khaled Hussain "," 0306-6005457"
"1 "," 957 "," Abdul Ghafar   "," 0307-3691281"
"1 "," 958 "," Amana Ali joya "," 0301-6905141"
"1 "," 959 "," Liaqat Ali  "," 0304-5672107"
"1 "," 960 "," Muhammad Arshad "," 0301-7438750"
"1 "," 961 "," Barish Ali "," 0300-7274032"
"1 "," 962 "," Saqib Mahmood "," 0301-7944157"
"1 "," 963 "," Nawab Ali "," 0302-6515957"
"1 "," 964 "," Muhammad Azam Malangi "," 4271857"
"1 "," 965 "," Star ./Neaz Muhammad  "," 0307-2212114"
"1 "," 966 "," Umar Draz "," -"
"1 "," 967 "," Khalid / Khushi M "," -"
"1 "," 968 "," Jabar / Khushi M  "," "
"1 "," 969 "," Talib Hussain "," 0300-7734994"
"1 "," 970 "," Naseem  / Sultan "," 0300-7739063"
"1 "," 971 "," Aashiq/ G Rasool "," 0301-3378063"
"1 "," 972 "," Riaz / G Rasool "," "
"1 "," 973 "," Sharif / G Rasool "," 0305-5963728"
"1 "," 974 "," Tamkeen  / Ishaq "," 0308-7935576"
"1 "," 975 "," Noor Muhammad ./ Rmzan "," 0301-7949372"
"1 "," 976 "," Habib / Younis "," 0301-4916572"
"1 "," 977 "," Younis / Abdul Ghafoor "," 0302-7541853"
"1 "," 978 "," Talib Hussain "," 0300--2008578"
"1 "," 979 "," Hanif / Ramzan "," "
"1 "," 980 "," Yahya/ Menhal "," "
"1 "," 981 "," Shrif / nazam "," "
"1 "," 982 "," Yaquoob/ Allah Ditta "," 307-6840504"
"1 "," 983 "," Manzoor / Abdul Ghani "," 0308-7261072"
"1 "," 984 "," Iqbal / M Deen "," 0302-8132891"
"1 "," 985 "," Yasin "," 0303-8031470"
"1 "," 986 "," Saif / Bashir Ahmed "," 0303-7853572"
"1 "," 987 "," Liaqat Ali / Ismaeel "," "
"1 "," 988 "," Khalid    "," 0303-4199826"
"1 "," 989 "," Rafiq / Khair M "," 0302-3931770"
"1 "," 990 "," Atta Ullah/ Bashir Ahmed "," 0301-6391911"
"1 "," 991 "," Anser / Allah Rakha "," "
"1 "," 992 "," Sadiq "," 0337-6304489"
"1 "," 993 "," Rasheed  "," "
"1 "," 994 "," Majeed "," "
"1 "," 995 "," Allah Rakha/ Bashir "," 0306-8810454"
"1 "," 996 "," Aslam / Fazal Ahmed "," "
"1 "," 997 "," Khursheed / M Deen "," 0305-6192510"
"1 "," 998 "," Khadim Hussain / M Deen "," 0307-7931399"
"1 "," 999 "," Papo "," 0306-6565752"
"1 "," 1000 "," Master Mushtaq/ Majeed "," 0302-7992372"
"1 "," 1001 "," Liaqat / Shrif "," 0303-5125772"
"1 "," 1002 "," Rashid / Abdul Ghafoor  "," 0302-8956336"
"1 "," 1003 "," Yaqoob / Mand "," 0305-9132074"
"1 "," 1004 "," Saleem / Mehfooz "," 0301-6043347"
"1 "," 1005 "," Saber / Umer "," 0302-7738711"
"1 "," 1006 "," Asgar / M Hussain "," 3007930955"
"1 "," 1007 "," Kashif / M Amin "," 0302-5063390"
"1 "," 1008 "," Khalid / Bashir Ahmd "," 0302-7738972"
"1 "," 1009 "," Qadeer / Adrees "," "
"1 "," 1010 "," Bashir / Taaj Muhammad "," "
"1 "," 1011 "," Nasir / Gulam Nabi "," "
"1 "," 1012 "," Aslam / Fazal Ahmed "," "
"1 "," 1013 "," Ashraf / G Haider "," "
"1 "," 1014 "," Anwar Iqbal./ Anwar "," "
"1 "," 1015 "," Shkeel / Akhter "," "
"1 "," 1016 "," M Aslam / M Yousaf "," "
"1 "," 1017 "," Anwar / Ismaeel "," "
"1 "," 1018 "," M Ismaeel "," "
"1 "," 1019 "," Ahmed Buksh/ Nezam "," "
"1 "," 1020 "," Ashraf Fazal Deen "," "
"1 "," 1021 "," M Hussain G Rasool "," "
"1 "," 1022 "," Yamin / Munir "," "
"1 "," 1023 "," Nasaar / Ghafoor "," "
"1 "," 1024 "," Ali Hussain / Shrif "," 0307-6372165"
"1 "," 1025 "," Sharif / Malak Ramla "," "
"1 "," 1026 "," Ramzan / Bashir "," 0302-8769134"
"1 "," 1027 "," Maqbool ;/ Abdul Ghani "," "
"1 "," 1028 "," Rahmet/ Ghafoor "," 0302-7948439"
"1 "," 1029 "," Shafeeq / Wadda "," 0301-4439172"
"1 "," 1030 "," Abdul Ghafoor / Sher M "," 0301-7936172"
"1 "," 1031 "," Bashir / Sher M  "," 0306-7066272"
"1 "," 1032 "," Anwar / M Hussain "," 0321-7721278"
"1 "," 1033 "," Sarwar "," "
"1 "," 1034 "," Jhoola/ Maala "," "
"1 "," 1035 "," Asif / Amin "," 0300-8993765"
"1 "," 1036 "," Faiz / Nasaar "," 0347-8471172"
"1 "," 1037 "," Umer Tufail/ Tufail "," 0300-7723559"
"1 "," 1038 "," Usman / Ali M "," 0307-5342944"
"1 "," 1039 "," Dilber / Rahmet Ali "," 0306-7934157"
"1 "," 1040 "," Sharif / Ali Muhammd  "," 0302-2773013"
"1 "," 1041 "," Zareef / Manzoor "," "
"1 "," 1042 "," Abdul Aziz "," 0300-7738254"
"1 "," 1043 "," Khalid Aziz/ Abdul Aziz "," "
"1 "," 1044 "," Anjam / Sultan "," "
"1 "," 1045 "," Akber / Jameel "," 0302-8924067"
"1 "," 1046 "," Wakeel / Rahmet "," "
"1 "," 1047 "," Nadeem Akhter "," 0300-2772172"
"1 "," 1048 "," Mukhtar "," "
"1 "," 1049 "," Iqbal / Aashiq "," 0305-7002169"
"1 "," 1050 "," Sardar "," "
"1 "," 1051 "," Sajid / Munir "," 0300-7738459"
"1 "," 1052 "," Safder / M Deen "," "
"1 "," 1053 "," Nawaz / Sultan "," 0301-7946391"
"1 "," 1054 "," Naik M / Majeed "," "
"1 "," 1055 "," Reasat / razaq "," 0302-2748195"
"1 "," 1056 "," Israr ./ Nasaar "," 0344-7298972"
"1 "," 1057 "," Ahmed Buksh/ Nezam "," "
"1 "," 1058 "," Yasin . / Munir  "," 0306-6531930"
"1 "," 1059 "," Saleem Bashir  "," 0302-7992180"
"1 "," 1060 "," Ashraf / Hassan "," 0308-8645372"
"1 "," 1061 "," Ramzan   "," "
"1 "," 1062 "," Saddiq "," "
"1 "," 1063 "," Khakid / Saddiq "," "
"1 "," 1064 "," Nazir  / Nwab "," "
"1 "," 1065 "," Abdul Aziz / Dewan "," 0300-4652157"
"1 "," 1066 "," Abdul Qadir / Sadiq "," 0302-3549049"
"1 "," 1067 "," Amir / Wali M "," 0306-2056809"
"1 "," 1068 "," Iqbal   "," "
"1 "," 1069 "," Saif "," "
"1 "," 1070 "," Tasleem / Nwab "," 0303-7835570"
"1 "," 1071 "," Asgar / Sher M  "," "
"1 "," 1072 "," Nasir / M Shafee "," 0304-6648972"
"1 "," 1073 "," M Afzal / M Deen "," 0300-2234172"
"1 "," 1074 "," Haji Akhter Haider "," 0301-6579147"
"1 "," 1075 "," Haji Akhter Haider "," 0301-6579147"
"1 "," 1076 "," Hanif / Sarajoo "," 0301-3952550"
"1 "," 1077 "," Nasir / Shahbaz "," 0301-4421770"
"1 "," 1078 "," Shakeel / Jameel "," 0305-596381"
"1 "," 1079 "," Jameel / Majeed "," 0305-596381"
"1 "," 1080 "," Qadeer / Sadiq "," "
"1 "," 1081 "," Gulzar / Shafee "," 0307-7700665"
"1 "," 1082 "," Khushi / Gamoo "," "
"1 "," 1083 "," Jabar / Noor M  "," "
"1 "," 1084 "," Nazir / Taaj M "," "
"1 "," 1085 "," Shokat / Sadiq "," 0300-2459672"
"1 "," 1086 "," Sadiq / Taaj  "," 0308-6686430"
"1 "," 1087 "," Sharafat / Sadiq "," 0308-6686430"
"1 "," 1088 "," M Rafiq  / Sadiq "," 0308-6686430"
"1 "," 1089 "," Iqbal / Rafiq "," "
"1 "," 1090 "," Intazar "," 301-5357199"
"1 "," 1091 ","  Mustafa ./ Sadiq "," 0301-3981606"
"1 "," 1092 "," Amin / Rahmet Ali "," 0307-7938033"
"1 "," 1093 "," Ali Bahader / Habib "," "
"1 "," 1094 "," Khalid "," "
"1 "," 1095 "," Aslam / Meher Deen "," "
"1 "," 1096 "," Nadeem . / Sharif "," "
"1 "," 1097 "," Maqbool/  "," "
"1 "," 1098 "," Asif / Bashir  "," 0300-5950440"
"1 "," 1099 "," Shera / Khushi M "," 0308-4894191"
"1 "," 1100 "," Anwar / Hadoo "," "
"1 "," 1101 "," Amin  / M Hussain "," 0301-7943572"
"1 "," 1102 "," Sharif / Faqir M "," 0300-4831457"
"1 "," 1103 "," Allah Rakha / Nazam Deen "," "
"1 "," 1104 "," Satar / Abdul Ghafar "," 0301-6583572"
"1 "," 1105 "," Tasleem  / Anwar  "," 0300-793272"
"1 "," 1106 "," Yousaf/ Ismaeel  "," "
"1 "," 1107 "," Atta Ullah    "," 0301-6391911"
"1 "," 1108 "," Ilyas/ Nazir  "," "
"1 "," 1109 "," Liaqat Nazir  "," "
"1 "," 1110 "," Sharif / nazir "," 0308-4810956"
"1 "," 1111 "," Shafee / nazir "," "
"1 "," 1112 "," Star / Ibraheem "," 0301-7933640"
"1 "," 1113 "," Pervez  / Umar  "," 0305-6499825"
"1 "," 1114 "," Abid / M Hussain "," "
"1 "," 1115 "," Noor Hassan/ Noor m "," 0307-5363785"
"1 "," 1116 "," Allah Rakha/ Atta M  "," 0321-5854157"
"1 "," 1117 "," Atta / Ahmed "," "
"1 "," 1118 "," Shakeel    "," 0333-7072632"
"1 "," 1119 "," Abad Khan/ Abdul Razaq "," 0301-2025850"
"1 "," 1120 "," Liaqat / Shah M  "," "
"1 "," 1121 "," Ali Muhammad / Hussain "," "
"1 "," 1122 "," Shamshad / M Ilyas "," 0307-7934726"
"1 "," 1123 "," Liaqat / Saddiq "," 0305-9643172"
"1 "," 1124 "," Resat/ Saddiq "," "
"1 "," 1125 "," M Afzal "," 0306-7734174"
"1 "," 1126 "," M Nwaz Khushi "," 0345-7076174"
"1 "," 1127 "," M Hanif Doger "," 0308-8633674"
"1 "," 1128 "," M Rafiq Doger "," 0308-6680874"
"1 "," 1129 "," Taaj / Khushi M  "," 0302-3748342"
"1 "," 1130 "," Shan / Shahb Deen "," 3045714371"
"1 "," 1131 "," Mumtaz / Jaan M "," 0300-7796174"
"1 "," 1132 "," Rasheed / Jaan M "," 0302-3546574"
"1 "," 1133 "," M Younes Saddiq "," 0302-7721967"
"1 "," 1134 "," Molvi M Deen "," 0306-5478028"
"1 "," 1135 "," Hakem Ali Doger "," 0304-9703840"
"1 "," 1136 "," Arif Ali Jat "," 0300-8657174"
"1 "," 1137 "," Master Mubarak  "," 0301-7945174"
"1 "," 1138 "," Riaz / M Bukhsh "," 0308-2857925"
"1 "," 1139 "," M Hussain Manzoor "," 0304-6171027"
"1 "," 1140 "," Abdul Majeed "," 0300-6446167"
"1 "," 1141 "," M Rafiq Bhati] "," 0306-5563203"
"1 "," 1142 "," Waris Ali jat "," 0301-7949074"
"1 "," 1143 "," Malik Ali jat "," 0301-6917127"
"1 "," 1144 "," Farooz Khan "," 0306-8774400"
"1 "," 1145 "," Abdul Aziz "," 0303-7848816"
"1 "," 1146 "," M Nwaz Khushi "," 0301-6575539"
"1 "," 1147 "," M Riaz "," 0343-7297803"
"1 "," 1148 "," Waqar M Javed "," 0300-7725497"
"1 "," 1149 "," Iqram Nazar Hussain "," 0303-0725201"
"1 "," 1150 "," M Mushaq Gafoor  "," 0304-5041037"
"1 "," 1151 "," Saleem Usman "," 0300-9897980"
"1 "," 1152 "," Ali Shbir "," 0305-6646923"
"1 "," 1153 "," H Luqman Chadhar "," 0341-7188090"
"1 "," 1154 ","  Master M Shahid "," 0302-6400504"
"1 "," 1155 ","  Adeel Sajid Ali "," 0308-6549738"
"1 "," 1156 "," Liaqat Ali "," 0301-5003374"
"1 "," 1157 "," M Saddiq jat "," 0301-7931340"
"1 "," 1158 "," Sudhair Maqbool "," 0301-7944035"
"1 "," 1159 "," Gulam Haidher/Tanveer  "," 0321-4092890"
"1 "," 1160 "," Tariq Allah Ditta "," 0342-7743868"
"1 "," 1161 "," Javed Iqbal jat  "," 0300-6919536"
"1 "," 1162 "," Rashid jat "," 0323-7242867"
"1 "," 1163 "," Deen M Ensari "," 0300-3661377"
"1 "," 1164 "," H M Iqbal "," 0300-7724953"
"1 "," 1165 "," M Younes Jandran "," 0322-8962586"
"1 "," 1166 "," M Shrif Ansari "," "
"1 "," 1167 "," Nadeen Javed Ghafar "," 0301-7364910"
"1 "," 1168 "," Nazir M Ashiq "," 0343-7272602"
"1 "," 1169 "," M Akram  "," 0304-8540851"
"1 "," 1170 "," Haji M Shokat "," 0300-7725289"
"1 "," 1171 "," Haji M Shokat "," "
"1 "," 1172 "," Maratab Ali "," 6585767"
"1 "," 1173 "," Imran Zafar Magsi "," 0301-3195747"
"1 "," 1174 "," Ramzan M Nwaz Khan "," 0303-7839901"
"1 "," 1175 "," Sjadd M Hassan "," 0307-8018747"
"1 "," 1176 "," Nazir Ahmed Driver "," 0300-2624339"
"1 "," 1177 "," Molvi M Akram "," 0302-7727491"
"1 "," 1178 "," M Yousaf Kreem "," 0302-3541764"
"1 "," 1179 "," Umer rajab Ali "," 0300-7368746"
"1 "," 1180 "," H Bashir Ahmed "," 0302-7736367"
"1 "," 1181 "," H Bashir Ahmed "," 0303-7832049"
"1 "," 1182 "," H Bashir Ahmed "," 0302-7763367"
"1 "," 1183 "," Master Abdulla "," 0334-7172274"
"1 "," 1184 "," Haji M Rafiq "," 0345-7734973"
"1 "," 1185 "," Haji M Rafiq "," 0345-7734973"
"1 "," 1186 "," Abdul Razaq Asgar "," 0302-7737610"
"1 "," 1187 "," Asif M Saleem "," 0305--6943072"
"1 "," 1188 "," M Nazar Amir "," 0308-6247209"
"1 "," 1189 "," H M Sharif "," "
"1 "," 1190 "," H M Sharif "," 0343-7680556"
"1 "," 1191 "," Saber Amir Bukhsh "," 0306-8737387"
"1 "," 1192 "," Master M Mujahid Ashraf "," 0302-7734701"
"1 "," 1193 "," M Hanif Chadher "," 0343-7026898"
"1 "," 1194 "," Abass H Shmir Shamh "," 0344-7271517"
"1 "," 1195 "," Sajad Hussain "," 0307-6374574"
"1 "," 1196 "," Gulam Abas Bhati "," 0308-5235585"
"1 "," 1197 "," M Aslam Musa "," 0346-1726773"
"1 "," 1198 "," Allah Bukhsh Luqman "," 0302-7734239"
"1 "," 1199 "," Zafar Gufar "," 0300-3529156"
"1 "," 1200 "," Mahar M Bukhsh "," 0303-7237706"
"1 "," 1201 "," Tahir Allah Bukhsh "," 0300-7736701"
"1 "," 1202 "," Dost M Naber Daar "," 0300-7832682"
"1 "," 1203 "," Dost M Naber Daar "," "
"1 "," 1204 "," M Zahid / M Ashiq "," 0305-7696845"
"1 "," 1205 "," Noor M / M Saddiq "," 0334-7186416"
"1 "," 1206 "," Sharif Allah yar "," 0308-8542712"
"1 "," 1207 "," Mhar Manzoor Habib "," 0302-7733850"
"1 "," 1208 "," Mahar M Ramzan "," 3068638574"
"1 "," 1209 "," Irfan Riaz "," 0333-7733174"
"1 "," 1210 "," Safadr Bashir  "," 0302-7735327"
"1 "," 1211 "," Ramzan Abdul gafoor  "," 0307-8738860"
"1 "," 1212 "," Nazir Fareed Kmlana "," 0304-7389290"
"1 "," 1213 "," Abdul Gafoor Saddiq "," 0332-6221174"
"1 "," 1214 "," Mushtaq Ahmed Kamlana "," 0304-1063982"
"1 "," 1215 "," Bashir Freed  "," "
"1 "," 1216 "," Liaqat Ali "," 0305-5199185"
"1 "," 1217 "," Amir Bashir / Ahmed Bukhsh "," 0308-5632174"
"1 "," 1218 "," Umer Draz Bhati "," 3087363451"
"1 "," 1219 "," Wahid Bukhsh G F "," 0302-6513862"
"1 "," 1220 "," Haji M Bhait "," "
"1 "," 1221 ","  M Akram / Lal Bhati "," 0304-9639035"
"1 "," 1222 "," M riaz Driver  "," 0300-6372123"
"1 "," 1223 "," Mushtaq Abdullah "," 0300-6372123"
"1 "," 1224 "," Azhar Gulam Abass "," 0301-5178865"
"1 "," 1225 "," Suleman Bhati "," "
"1 "," 1226 "," M Khadim Kamlana "," "
"1 "," 1227 "," Imran M Hussain Kmalana "," 0301-7522701"
"1 "," 1228 "," zafar / H Sarwar "," 0346-4815174"
"1 "," 1229 "," Haji Allah Yar "," 0300-6243874"
"1 "," 1230 "," M Latiq  "," 0300-7982174"
"1 "," 1231 "," Tahir M Rafiq N D "," 0300-5429474"
"1 "," 1232 "," Liaqat Majeed "," 0303-7876466"
"1 "," 1233 "," M Shamaoon "," 0302-7734167"
"1 "," 1234 "," M Aslam . Nwab Deen "," 0306-4671693"
"1 "," 1235 "," M Arshad N D "," 0308-8355674"
"1 "," 1236 "," Shaban Bashir Ahmed "," 0308-6680552"
"1 "," 1237 "," M Riaz / Khushi M "," 0346-4813745"
"1 "," 1238 "," Abdul Gafoor Sardar "," 0308-4420308"
"1 "," 1239 "," Haji Gulam Murtaza "," 0305-5706353"
"1 "," 1240 "," Master Nazam Deen "," 0303-6170174"
"1 "," 1241 "," Haji Bashir Zearat "," 0303-7837394"
"1 "," 1242 "," M Riaz Sultan "," 0307-6382581"
"1 "," 1243 "," Shakeel Abdul Gafoor  "," 0301-6598974"
"1 "," 1244 "," M Amin Nawaz "," "
"1 "," 1245 "," M Yousaf Majeed "," 0301-4236174"
"1 "," 1246 ","  M Iqbal / Gull M  "," 0308-7388274"
"1 "," 1247 "," Abdul Razaq / Shafi "," 0301-5368012"
"1 "," 1248 "," Malak Zafar Shafi "," 0304-8613220"
"1 "," 1249 "," M Ashiq  "," 0321-7737208"
"1 "," 1250 "," Farooq Ch.Nazir "," 0300-4546952"
"1 "," 1251 "," Rafiq Gulam Sarwer  "," 0344-6433274"
"1 "," 1252 "," M Ibraheem Doger "," 0342-6432849"
"1 "," 1253 "," M Sharif Doger "," 0300-8146922"
"1 "," 1254 "," H Bashir Ahmed "," 0302-7732169"
"1 "," 1255 "," M Ishaq doger "," 0304-4697177"
"1 "," 1256 "," M Zaheer Bashir  "," 0300-6875913"
"1 "," 1257 "," Shabir Bashir  "," 0307-6854745"
"1 "," 1258 "," Kaleem Mushtaq Ahmed "," 0341-5096174"
"1 "," 1259 "," M Ishfaq "," 0304-6695533"
"1 "," 1260 "," Gull Sher Khan "," 0301-4319414"
"1 "," 1261 "," Munir Hussain "," 0303-0724595"
"1 "," 1262 "," M Deen / Sadr Deen "," 0345-7096976"
"1 "," 1263 "," Gufaar M Deen "," 0301-7943574"
"1 "," 1264 "," Foji M latif "," 0300-4326545"
"1 "," 1265 "," Bao Mushtaq  "," 0302-7736912"
"1 "," 1266 "," Haji Rasheed jt "," 0344-6985574"
"1 "," 1267 "," Master Ramzan Hotal Wala "," 0305-7002874"
"1 "," 1268 "," M Hayyat "," 0346-2361193"
"1 "," 1269 "," M Sharif Tufail "," 0304-6774236"
"1 "," 1270 "," Foji M Iqbal "," 0302-7947574"
"1 "," 1271 "," Fofi M Aslam "," 0345-7072322"
"1 "," 1272 "," M Sardar Tufail "," 0304-9632498"
"1 "," 1273 "," M Qasim "," 0302-7940338"
"1 "," 1274 "," Gulam Rasool / lal deen "," 0304-5714321"
"1 "," 1275 "," Gulam Rasool / lal deen "," 0305-7003081"
"1 "," 1276 "," Abdul Qume "," 0302-3508174"
"1 "," 1277 "," M Zafar Iqbal "," 0301-5869891"
"1 "," 1278 ","  "," "
"1 "," 1279 "," Sardar Akber Ali "," 0300-8697174"
"1 "," 1280 "," Zulafqar Ali N D "," 0341-6993801"
"1 "," 1281 "," Abdul Latif Doge "," 0303-7237415"
"1 "," 1282 ","  "," "
"1 "," 1283 "," Abdul gafar Jan M "," 0301-6587974"
"1 "," 1284 "," Shokat Shrif "," 0305-6871218"
"1 "," 1285 "," Abdul Star / Abdul Aziz "," 0303-6177162"
"1 "," 1286 "," Imran Jaan M  "," "
"1 "," 1287 "," Abdul Latif Arrian "," 0347-8511874"
"1 "," 1288 "," Mukhtar Aziz "," 0307-5229779"
"1 "," 1289 "," Hadait ali "," 0301-4510633"
"1 "," 1290 "," Pervez Arrian "," 0306-6851767"
"1 "," 1291 "," Haji M Rafiq "," 0342-8871974"
"1 "," 1292 "," Malak Arshed Shafi "," 0305-7001876"
"1 "," 1293 "," Mahar Akber "," 0308-8351163"
"1 "," 1294 "," M Yasim Nawaz "," 0302-4683713"
"1 "," 1295 "," Saleem/ Nazier "," 0302-6537260"
"1 "," 1296 "," Danish/ Sadaa Deen "," 0307-6842351"
"1 "," 1297 "," M Arshad Saddiq "," 0307-6382874"
"1 "," 1298 ","  M Waqas Jabar  "," 0302-2351374"
"1 "," 1299 "," Shokat Aziz "," 0306-4082161"
"1 "," 1300 "," Haji Liaqat  "," 0302-7470551"
"1 "," 1301 "," Haji Nazir Ahmed "," 0301-3241319"
"1 "," 1302 "," Haji M Saleem Nazir "," 0301-6949174"
"1 "," 1303 "," Faqir M / Khushi M "," 0306-6949174"
"1 "," 1304 "," Hafiz Abdul Satar "," 0307-6378874"
"1 "," 1305 "," Abdul Jabar / Jaan M "," 0301-6571174"
"1 "," 1306 "," M Saleem Konsalar "," 0345-7079001"
"1 "," 1307 "," M Saddiq / Jhanda "," 0301-6574352"
"1 "," 1308 "," M Saleem Hameed "," 0301-7944286"
"1 "," 1309 "," M Naem Hameed "," 0304-8661118"
"1 "," 1310 "," Sardar Ahmed/ Khushi m "," 0301-7945974"
"1 "," 1311 "," M Iqbal / Khushi "," 0308-5913880"
"1 "," 1312 "," Imran Gull Muhammad "," 0302-6789729"
"1 "," 1313 "," Ijaz "," 0304-9632484"
"1 "," 1314 "," Abdul Razaq Bashir "," 0301-7605086"
"1 "," 1315 "," Sadar Deen "," 0302-3543686"
"1 "," 1316 "," M Javed Goga "," 0307-6847616"
"1 "," 1317 "," Riaz / Allah Ditta "," 0346-1726674"
"1 "," 1318 "," Mistry Allah Rakha "," 0302-4616806"
"1 "," 1319 "," H Mukhat Ansari "," 0300-9251595"
"1 "," 1320 "," Rabnwaz Sial "," 0307-6896276"
"1 "," 1321 "," Faqir Hussain / Ramzan "," 0343-7271106"
"1 "," 1322 "," Mistry Asgar Ali "," 0301-4129288"
"1 "," 1323 "," Abdul Rahman Ansari "," 0307-4550274"
"1 "," 1324 "," Iqbal / Noor Muhammad  "," 0306-8634391"
"1 "," 1325 "," Muhammad Azahar Khan "," 0300-7947174"
"1 "," 1326 "," Liaqat Ali "," 0301-7940758"
"1 "," 1327 "," Reasat ali "," 0301-6583368"
"1 "," 1328 "," Mastr M Aslam Hayyat "," 0302-7736974"
"1 "," 1329 ","  Jaan M Ansari "," 0303-6588377"
"1 "," 1330 "," Asif M Yousaf "," 0307-4716303"
"1 "," 1331 "," Lal Deen "," 0306-4162174"
"1 "," 1332 "," Khushi M Driver "," 0343-7303674"
"1 "," 1333 "," Mistry Mukhat  "," 0302-7736737"
"1 "," 1334 "," Baba Mehr Deen "," 0302-4642490"
"1 "," 1335 "," Jaan M / Jhanda "," 3024014816"
"1 "," 1336 "," malak Zulfqar Shafi "," "
"1 "," 1337 "," Naeem / Haq Nwaz "," 0307-2213976"
"1 "," 1338 "," M Ramzan / Gul Muhammad  "," 0308-5940210"
"1 "," 1339 "," Shahbaz / Ramzan "," 0300-6216997"
"1 "," 1340 "," Jamshed / Nasar Deen "," 0301-7946018"
"1 "," 1341 "," Molvi Mehuy Deen "," 0321-7720377"
"1 "," 1342 "," Mistry M Ramzan "," 0347-7564921"
"1 "," 1343 "," Mistry Yasin "," 0302-7355076"
"1 "," 1344 "," Malak M Anwar "," 0308-5914425"
"1 "," 1345 "," Haji Mukhtar Hussain "," 0306-8669912"
"1 "," 1346 "," Abdul Majeed "," 0302-7948174"
"1 "," 1347 "," Hanif Gul M  "," 0304-1374874"
"1 "," 1348 "," Wali Muhammd Chughata "," 0306-5240114"
"1 "," 1349 "," M Latif nwaz Bhati "," 0302-6915026"
"1 "," 1350 "," M Ramzan Bhati "," 0305-5705823"
"1 "," 1351 "," M Akram Ismaeel "," 0301-4002941"
"1 "," 1352 "," Manzoor M Bhati "," 0344-5155914"
"1 "," 1353 "," M Hanif Bhati "," 0303-0587506"
"1 "," 1354 "," Foji Gul M "," 0306-7919095"
"1 "," 1355 "," Foji Safyo Deen "," 0307-8755174"
"1 "," 1356 "," Naveed Nasar Deen "," 0302-7497122"
"1 "," 1357 "," Shafi Bhati "," 0302-4162501"
"1 "," 1358 "," Chargh Bhati "," 0341-3449665"
"1 "," 1359 "," H Altaf Hussain  "," 0303--4379213"
"1 "," 1360 "," Shokat Majeed N D "," 0306-7940184"
"1 "," 1361 "," Mistry M Akram  "," 0304-0827181"
"1 "," 1362 "," Haji / Fazal Bhati "," 0306-6586193"
"1 "," 1363 "," Malak Nadeem Yasin "," 0308-6008675"
"1 "," 1364 "," Sadiq H Bhati "," 0302-7735376"
"1 "," 1365 "," Allah Bukhsh Kamlana "," 0307-4499230"
"1 "," 1366 "," M Afzal Kamalana "," 0304-5567710"
"1 "," 1367 "," M Ishaq Dukan dar "," 0301-7465174"
"1 "," 1368 "," M Akram Bhati "," 0307-8591187"
"1 "," 1369 "," Allah Yar Pehlwan "," 0306-6848172"
"1 "," 1370 "," Malak Abdul Aziz "," 0301-7097658"
"1 "," 1371 "," Zahid Iqbal Chadhar "," 0301-2296874"
"1 "," 1372 "," Manzoor urf Bhori "," 0301-6577533"
"1 "," 1373 "," M Anwar Kamlana "," 0300-7725730"
"1 "," 1374 "," Baba m  Buta "," 0343-7041568"
"1 "," 1375 "," Mukhtyar Nwaz Bhati "," 0304-3246458"
"1 "," 1376 "," Fida sofi M Yar "," 0303-7876505"
"1 "," 1377 "," H Allah Ditta "," 0300-7139886"
"1 "," 1378 "," M Sarwar Bhati "," 0304-2689671"
"1 "," 1379 "," M Riaz Kamlana "," "
"1 "," 1380 "," M Akram / Bagh Ali "," 0303-5582927"
"1 "," 1381 "," M shabaz Meer Aalam "," 0306-5058055"
"1 "," 1382 "," M Saleem Meer Aalam "," 0308-4552557"
"1 "," 1383 "," Sajad Rafiq N D  "," 0303-9007211"
"1 "," 1384 "," Malak M Akram Shakoor  "," 0304-8594713"
"1 "," 1385 "," Abdul Razaq Ansari "," 0308-6686858"
"1 "," 1386 "," Naseer Ahmed Ansari "," 0302-6384275"
"1 "," 1387 "," Dr Zubair Ahmed "," 0304-6915080"
"1 "," 1388 "," Foji waqar Sial "," 0301-7940814"
"1 "," 1389 "," Riaz Ahmed Doltana "," 0302-7722871"
"1 "," 1390 "," M Ijaz Khan "," 0300-7723976"
"1 "," 1391 "," Foji M Yaqoob "," 0302-7947208"
"1 "," 1392 "," M Tufail Meer Aalam "," 0307-4102997"
"1 "," 1393 "," M Bota Iqbal "," 0304-7045174"
"1 "," 1394 "," Farzand Ali Doger  "," 0303-4880195"
"1 "," 1395 "," H Abdul Majeed Doger "," "
"1 "," 1396 "," H Mansh "," 0342-3103892"
"1 "," 1397 "," Sher M Goger  "," 0308-8943174"
"1 "," 1398 "," Mistry Aman Ullah "," 0301-7937368"
"1 "," 1399 "," M Ashiq Khan Chadhar "," 0347-7462074"
"1 "," 1400 "," Amin / M Deen "," 0302-4094932"
"1 "," 1401 "," Rashed / Noor Bhati "," "
"1 "," 1402 "," Misty Asgar Ali "," 0302-3540773"
"1 "," 1403 "," Mistry Anwar  "," 0347-2365803"
"1 "," 1404 "," Guidence P S  "," 0302-3543003"
"1 "," 1405 "," Shbir  Ahmed Chadhar "," 0306-6851788"
"1 "," 1406 "," Mushtaq Bashir Ansari "," 0301-2737038"
"1 "," 1407 "," Mistry M Ashraf "," 0345--7078792"
"1 "," 1408 "," Niaz Bashir Ansari "," 0303-6175398"
"1 "," 1409 "," M Rafiq / Shan M "," 0300-8573126"
"1 "," 1410 "," Shoab Shrif Bhati "," 0302-7249054"
"1 "," 1411 "," Janat BB "," 0308-7592974"
"1 "," 1412 "," Naeem Saddiq "," "
"1 "," 1413 "," M Sharif N D "," 0308-2857664"
"1 "," 1414 "," M Amin N  "," 0301-6576129"
"1 "," 1415 "," M Saleem N D "," 0302-7948136"
"1 "," 1416 "," Haji M Afzal "," 0300-7721891"
"1 "," 1417 "," Shahid Bashir Hamam "," 0302-2488290"
"1 "," 1418 "," Mushtaq Shrif jt "," 0342-8872037"
"1 "," 1419 "," Karachi Hair Stylish "," 0321-7569159"
"1 "," 1420 "," Ch M Hanif  "," 0300-7738165"
"1 "," 1421 "," Ch M Shafeeq "," 0345-8430165"
"1 "," 1422 "," Liaqat Garam Hamam "," 0301-7944267"
"1 "," 1423 "," Ch Bashir Ahmed Javed "," 0301-5348302"
"1 "," 1424 "," Hamza Publich School "," 0302-7736974"
"1 "," 1425 "," Haq Nawaz "," 0306-7948286"
"1 "," 1426 "," Gull Sher Magsi "," 0301-4319414"
"1 "," 1427 "," Hanif N D "," 0304-9127503"
"1 "," 1428 "," H Zawar Hussain "," 0302-3720174"
"1 "," 1429 "," Abass / Mukhar Jat "," 0323-7262084"
"1 "," 1430 "," Master m Anwar  "," 0345-7075876"
"1 "," 1431 "," Imran Sarwar "," 0345-8182900"
"1 "," 1432 "," Hakem Ali Ramzan "," 0302-3583174"
"1 "," 1433 ","  "," "
"1 "," 1434 "," Haron Allah Ditta "," 0301-6587897"
"1 "," 1435 "," Yasmin Jaan "," 0341-6185366"
"1 "," 1436 "," Noori Sadiq "," -"
"1 "," 1437 "," Saleem Bashir "," -"
"1 "," 1438 "," Sardar Mashi "," -"
"1 "," 1439 "," Mustaq Allah Ditta "," -"
"1 "," 1440 "," Rasib Fazal  "," -"
"1 "," 1441 "," Sadiq Nama "," -"
"1 "," 1442 "," Boota Masi "," -"
"1 "," 1443 "," Ashraf Mashi "," -"
"1 "," 1444 "," Kasif Mashi "," -"
"1 "," 1445 "," Muneer Sadiq "," -"
"1 "," 1446 "," Krasto Charlas N "," 0306-7736127"
"1 "," 1447 "," Jozaf Bukhs "," -"
"1 "," 1448 "," Kala  Mashi "," -"
"1 "," 1449 "," Zulfqar Bhatti "," -"
"1 "," 1450 "," Sardar Yousaf "," -"
"1 "," 1451 "," Boota Kanam "," -"
"1 "," 1452 "," Saleen Waesan "," 0301-6925977"
"1 "," 1453 "," Younas/Smoael "," -"
"1 "," 1454 "," Asif Jan "," -"
"1 "," 1455 "," Abe Saloom Jan "," -"
"1 "," 1456 "," Munir Manik  "," -"
"1 "," 1457 "," Younas Dani L  "," -"
"1 "," 1458 "," Aasher Barkat "," "
"1 "," 1459 "," Jozaf / Manak "," -"
"1 "," 1460 "," Sarfraz Smoil Deen "," -"
"1 "," 1461 "," Aslam Saddiq "," -"
"1 "," 1462 "," williom Bashir "," -"
"1 "," 1463 "," Ishaq Jamal "," -"
"1 "," 1464 "," Buta Hadait "," 0302-7999283"
"1 "," 1465 "," Sadar Hameed "," -"
"1 "," 1466 "," Kala Ranjha "," -"
"1 "," 1467 "," Saber Barakat "," -"
"1 "," 1468 "," Munshi Sardar "," 0306-4983294"
"1 "," 1469 "," Dilshad Yaquob "," 0344-2448948"
"1 "," 1470 "," Shrif Saddq "," 0303-4834239"
"1 "," 1471 "," Maqbool Anait "," 0301-4901157"
"1 "," 1472 "," David Barakat "," -"
"1 "," 1473 "," Rehmet Sawati "," 0303-7044670"
"1 "," 1474 ","  Javed Rehmat Sawati "," 0304-7715009"
"1 "," 1475 "," Neamat Barakat "," 0301-4884500"
"1 "," 1476 "," Daneat Nathai l "," 0302-7962416"
"1 "," 1477 ","  Arshad Masee "," 0344-7391079"
"1 "," 1478 "," Pervez Sawati "," 0306-2694883"
"1 "," 1479 "," Hameed Pehlwan "," 0301-4619674"
"1 "," 1480 "," Iqbal Barkat "," 0300-7596232"
"1 "," 1481 "," Youqob Prem "," 0304-5541379"
"1 "," 1482 "," Asger Umer Deen "," 0307-8719679"
"1 "," 1483 "," Shkeel Anait "," 0307-6562377"
"1 "," 1484 "," Habel Jaan  "," -"
"1 "," 1485 "," Fazal Tara "," -"
"1 "," 1486 "," Shokat Tara "," -"
"1 "," 1487 "," Noor Anait "," 0342-1571377"
"1 "," 1488 "," Master Amin "," "
"1 "," 1489 "," Riaz Mushtaq "," "
"1 "," 1490 "," Rasheed Mehboob "," 0303-8126528"
"1 "," 1491 "," Saleem  "," "
"1 "," 1492 "," Majeed Mehboob "," "
"1 "," 1493 "," Lal Taaj "," "
"1 "," 1494 "," Saleem Barkat "," "
"1 "," 1495 "," Dr Arif "," "
"1 "," 1496 "," Amjad Mistry "," "
"1 "," 1497 "," Asher Saleem Barkat "," "
"1 "," 1498 "," Avez Akhter "," 0306-7891409"
"1 "," 1499 "," Lal Deen Gil "," "
"1 "," 1500 "," Iqbal Gil "," 0304-3231936"
"1 "," 1501 "," Hamees Barkat "," "
"1 "," 1502 "," Pervez Barkat "," "
"1 "," 1503 "," Guger Dukan Dar "," "
"1 "," 1504 "," Khuda Bukhsh "," "
"1 "," 1505 "," Peader Meju "," "
"1 "," 1506 "," Salbert Amadu L "," "
"1 "," 1507 "," Master Younes "," "
"1 "," 1508 "," Elder Kanth Barkat "," 0308-8714377"
"1 "," 1509 "," Hazki L "," 0300-7596376"
"1 "," 1510 "," Abid Yousaf "," "
"1 "," 1511 "," Maqsood Chargh "," "
"1 "," 1512 "," Anwar Yazir "," "
"1 "," 1513 "," M Ijaz "," 0302-7333662"
"1 "," 1514 "," Chirman Abdul Ghani "," 0300-7545965"
"1 "," 1515 "," M Nawaz "," 0302-4452717"
"1 "," 1516 "," Mukhat Jat "," 0306-7247263"
"1 "," 1517 "," Haji M Arshad jt "," "
"1 "," 1518 "," Reasat Ali "," "
"1 "," 1519 "," Akram Bhati "," "
"1 "," 1520 "," Maqsood Ali "," "
"1 "," 1521 "," Mehmood Rasha "," "
"1 "," 1522 "," M younas  "," "
"1 "," 1523 "," Shahid Mukhar "," "
"1 "," 1524 "," Foji Safdar Ali "," "
"1 "," 1525 "," Sarwar Ali "," "
"1 "," 1526 "," Liaqat Ali "," "
"1 "," 1527 "," Mushtaq Farzand Deen "," "
"1 "," 1528 "," Abdul Aziz "," "
"1 "," 1529 "," M aslam "," "
"1 "," 1530 "," M Arshad "," "
"1 "," 1531 "," Shah m "," "
"1 "," 1532 "," M Qasim "," "
"1 "," 1533 "," M Ishaq "," "
"1 "," 1534 "," Abdul Zak "," "
"1 "," 1535 "," Adbul Khaliq "," "
"1 "," 1536 "," M Nwaz Loona "," "
"1 "," 1537 "," M Ishfaq "," "
"1 "," 1538 "," M Ishaq "," "
"1 "," 1539 "," M Saddiq "," "
"1 "," 1540 "," Liaqat Ali "," "
"1 "," 1541 "," ashiq Ali "," "
"1 "," 1542 "," M Saddiq "," "
"1 "," 1543 "," Yasine "," "
"1 "," 1544 "," Akber  "," "
"1 "," 1545 "," Foji Waris "," "
"1 "," 1546 "," Foji Maqbool "," "
"1 "," 1547 "," Dr Freed "," "
"1 "," 1548 "," Iftkhar Cheema "," "
"1 "," 1549 "," Basharat Ali "," "
"1 "," 1550 "," M Amin "," "
"1 "," 1551 "," M younas  "," "
"1 "," 1552 "," Atta Muhammad "," "
"1 "," 1553 "," Naveed Maseh/ Bashir "," "
"1 "," 1554 "," Munir Maseh "," "
"1 "," 1555 "," Mushraf Aziz "," "
"1 "," 1556 "," Sajawal Jaan "," "
"1 "," 1557 "," Qutab Deen "," "
"1 "," 1558 "," Lushker Ali "," "
"1 "," 1559 "," Nasir Ahhmad "," "
"1 "," 1560 "," TalibMaseh "," "
"1 "," 1561 "," Iqbal Maseh "," "
"1 "," 1562 "," AldezLal Masehh "," 0302-7135112"
"1 "," 1563 "," Alder Anwer M ","                               "
"1 "," 1564 "," Ismail Dani L "," "
"1 "," 1565 "," Nathani L "," "
"1 "," 1566 "," Dildar Ismael "," "
"1 "," 1567 "," ElderAbe Saloom "," 0307-7309517"
"1 "," 1568 "," AslamBarkat "," "
"1 "," 1569 "," Hadait Kanam "," "
"1 "," 1570 "," Aslam Chrag "," "
"1 "," 1571 "," Nazir Ahmad "," "
"1 "," 1572 "," Nasir Anwer "," "
"1 "," 1573 "," DR Munawer Rehmat "," "
"1 "," 1574 "," Asif Rehhmat "," "
"1 "," 1575 "," Azhar Yousaf "," "
"1 "," 1576 "," Samaon Salai L "," "
"1 "," 1577 "," Nazir Baag "," "
"1 "," 1578 "," Grifan Remat "," "
"1 "," 1579 "," Rana Samboon "," "
"1 "," 1580 "," Falimon Shezada "," "
"1 "," 1581 "," Arsad Dolla "," "
"1 "," 1582 "," Bashir Jaan "," "
"1 "," 1583 "," Mehboob Asghar "," "
"1 "," 1584 "," Elder Sarfraz "," "
"1 "," 1585 "," Ch Bashir  "," "
"1 "," 1586 "," Ashraf Munawer "," "
"1 "," 1587 "," Piyara Dani L "," "
"1 "," 1588 "," Sarif Dani L "," "
"1 "," 1589 "," Kashhif Jaan "," "
"1 "," 1590 "," Javed Smoel "," "
"1 "," 1591 "," Shabaz Bukhs "," "
"1 "," 1592 "," Mahr Shrif Aato "," "
"1 "," 1593 "," Iqbal Rehmat "," "
"1 "," 1594 "," Pervez Rehmat "," "
"1 "," 1595 "," Yousaf Takan "," "
"1 "," 1596 "," Arsaad Bukhs "," "
"1 "," 1597 "," Salim Bukhs "," "
"1 "," 1598 "," Manawer Dolla "," "
"1 "," 1599 "," salim Jaan "," "
"1 "," 1600 "," Tehkdar Shrif  "," "
"1 "," 1601 "," Mistary Akram "," "
"1 "," 1602 "," Waliym Remat "," "
"1 "," 1603 "," Rafiq Rehmat "," "
"1 "," 1604 "," Aslam Yaqoob "," "
"1 "," 1605 "," Arshad Munir "," "
"1 "," 1606 "," Farooq Munir "," "
"1 "," 1607 "," Shezada Mushtaq  "," "
"1 "," 1608 "," Younis Bhagun "," "
"1 "," 1609 "," Jann Dani L "," "
"1 "," 1610 "," Munir Anwer "," "
"1 "," 1611 "," Yazer Shah "," "
"1 "," 1612 "," Munawer Smoel "," "
"1 "," 1613 "," Jarman Rehmat "," "
"1 "," 1614 "," Anwer Yaqoob "," "
"1 "," 1615 "," Mukhtar Shangara "," "
"1 "," 1616 "," Shahid Yousaf "," "
"1 "," 1617 "," Salamat Barkat "," "
"1 "," 1618 "," Grefan sameth "," "
"1 "," 1619 "," Joel Shakoor "," 0308-4463377"
"1 "," 1620 "," Sokat Sardar "," "
"1 "," 1621 "," Janok Waras "," "
"1 "," 1622 "," France Maseh "," "
"1 "," 1623 "," Sarfraz Maseh "," "
"1 "," 1624 "," Anwer Betras "," "
"1 "," 1625 "," Javed Patras "," "
"1 "," 1626 "," Master Tahir "," "
"1 "," 1627 "," Azad Maseh "," "
"1 "," 1628 "," Latif Dhana "," "
"1 "," 1629 "," Mustaq Jalal "," "
"1 "," 1630 "," Shamaon Rehmat "," "
"1 "," 1631 "," Baba Nake "," "
"1 "," 1632 "," Mushtaq Jalal "," "
"1 "," 1633 "," Fareed Maseh "," "
"1 "," 1634 "," Jamees Maseh "," "
"1 "," 1635 "," Qadir Maseh "," "
"1 "," 1636 "," Rafiq Maseh "," "
"1 "," 1637 "," Sarfraz Kanum "," "
"1 "," 1638 "," Rahheem Shaker Deen "," "
"1 "," 1639 "," Shfiq Latif "," "
"1 "," 1640 "," Pervaz Piya "," "
"1 "," 1641 "," Master Jozaf "," "
"1 "," 1642 "," Naser Rasheed "," "
"1 "," 1643 "," Nazir Ramzan "," "
"1 "," 1644 "," Aslam Manawer "," "
"1 "," 1645 "," Ilyas Jalal "," "
"1 "," 1646 "," Bashir Ramzan "," "
"1 "," 1647 "," Anwer Shungara "," "
"1 "," 1648 "," Anwer Masoor "," "
"1 "," 1649 "," Boota Naina "," "
"1 "," 1650 "," Mistary Akram "," "
"1 "," 1651 "," Awaiz Smoel "," "
"1 "," 1652 "," YounasAmato l "," "
"1 "," 1653 "," Asar Barkat "," "
"1 "," 1654 "," Padri Pervez "," "
"1 "," 1655 "," Willium Mistary "," "
"1 "," 1656 "," Shezada Shani "," "
"1 "," 1657 "," Hanan Maseh "," "
"1 "," 1658 "," Bashhir Khokhar "," 0300-6993108"
"1 "," 1659 ","  Yaqoob Maseh "," 0300-7591162"
"1 "," 1660 "," Elder saman "," 0346-7802377"
"1 "," 1661 "," Reddon Soen "," 0346-4068907"
"1 "," 1662 "," Alfared Boota "," "
"1 "," 1663 "," M Yousaf Jat "," "
"1 "," 1664 "," Pervez Khrsheed "," "
"1 "," 1665 "," Khalid Ghulam M "," "
"1 "," 1666 "," Asraf Watto "," "
"1 "," 1667 "," Ibhrahim Jarje "," "
"1 "," 1668 "," Albrat Yazer "," "
"1 "," 1669 "," Amer Nazir Barkat "," "
"1 "," 1670 "," Ghulam Rasool "," "
"1 "," 1671 "," Yar M "," "
"1 "," 1672 "," M Arsha  "," "
"1 "," 1673 "," M Mansha "," "
"1 "," 1674 "," Amanat Ali "," "
"1 "," 1675 "," Allah Ditta "," "
"1 "," 1676 "," Arshad Ali Gapu "," 0334-7192044"
"1 "," 1677 "," Mian Muhammad Arshad "," 0300-7590576"
"1 "," 1678 "," Mian Muhammad Arshad "," 0300-7590576"
"1 "," 1679 "," Hakeem Akber Gapu "," 0321-9793149"
"1 "," 1680 "," M Ashraf Wapda "," "
"1 "," 1681 "," Nadeem Security Gard "," "
"1 "," 1682 "," M Saeed Pala "," "
"1 "," 1683 "," Shahzad Nadeem Gapu "," 0334-7205630"
"1 "," 1684 "," Zulafqar Ali Meht porea "," "
"1 "," 1685 "," Dr Rehan Wali "," "
"1 "," 1686 "," M Khalid Aalem Ka "," "
"1 "," 1687 "," Abdul Gafar Niko drea "," 0347-7417897"
"1 "," 1688 "," Aslam / Gulzar "," 0346-7814557"
"1 "," 1689 "," Nazir Ahmed Gamo Ka "," "
"1 "," 1690 "," M Aslam  "," "
"1 "," 1691 "," Hanif Patwari "," 0334-7205630"
"1 "," 1692 "," M Ali Khalifa "," "
"1 "," 1693 "," M Shahid Gapu "," 0322-6818497"
"1 "," 1694 "," Dr M Saeed "," 0345-7103497"
"1 "," 1695 "," Aamer Shrif Gapu "," "
"1 "," 1696 "," Master Aslam Bilal "," "
"1 "," 1697 "," javed Gapu "," 0300-6993497"
"1 "," 1698 "," Tahir kotea "," 0342-6977497"
"1 "," 1699 "," Shahid Akber porea "," "
"1 "," 1700 "," H Abdul Hameed "," "
"1 "," 1701 "," Malak Saddiq "," 0344-7307597"
"1 "," 1702 "," Zafar Iqbal mlooka "," "
"1 "," 1703 "," Bashir Ahmed Meht porea "," 0342-6976997"
"1 "," 1704 "," Master Abdul Waheed "," "
"1 "," 1705 "," Haji Faqeer m "," "
"1 "," 1706 "," Ahmed Shopkeeper "," "
"1 "," 1707 "," Bashir Ahmed Gamooka "," "
"1 "," 1708 "," Mukhtar Ahmed Mohny ka "," 0313-6904900"
"1 "," 1709 "," Naeem Sardar gapu "," 0334-7206797"
"1 "," 1710 "," Neaz Ahmed Shopkeeper  "," "
"1 "," 1711 "," Rafiq Dawd ka "," "
"1 "," 1712 "," Shbir Ahmed Dawd ka "," "
"1 "," 1713 "," Mukhtar Ahmed Raja "," 0300-6994697"
"1 "," 1714 "," Faqir Hussain Raja "," "
"1 "," 1715 "," Zahid Fooji "," "
"1 "," 1716 "," Shokat Ali Rahmani "," "
"1 "," 1717 "," M Ashraf Qootea "," 0334-7201297"
"1 "," 1718 "," Amin Sardar gapu "," 0300-7591009"
"1 "," 1719 "," Anees / Rasheed "," "
"1 "," 1720 "," Dr M Iqbal "," "
"1 "," 1721 "," Jamah Masjid "," "
"1 "," 1722 "," Madrsah "," "
"1 "," 1723 "," Brealient Public School "," 0300-6997020"
"1 "," 1724 "," Masjid Ahal e Hadees "," "
"1 "," 1725 "," Arshad Ahmed Mughal "," "
"1 "," 1726 "," Ashaq H Mistry "," "
"1 "," 1727 "," Saeed / Manzoor "," "
"1 "," 1728 "," Arshad / Kareem Bukhsh "," "
"1 "," 1729 "," Sagir Ali Rahmani "," 0311-6274880"
"1 "," 1730 "," Abdul Gafar  "," "
"1 "," 1731 "," Rafiq / Ismaeel "," "
"1 "," 1732 "," Mushtaq Ahmed Nasir "," 0344-7009807"
"1 "," 1733 "," Rafiq / Badur o Deen "," "
"1 "," 1734 "," Hashmat Ali  "," "
"1 "," 1735 "," Wali Muhammad Rahmani "," "
"1 "," 1736 "," M Nawaz / Wali M "," "
"1 "," 1737 "," Yousaf  / Yaqoob "," "
"1 "," 1738 "," Shahid Mehmood Yawar "," "
"1 "," 1739 "," Rasheed / Ismaeel Rahmani "," "
"1 "," 1740 "," Irfan C/o Baba Gulam Muhammad "," "
"1 "," 1741 "," Ashraf Panah geer "," "
"1 "," 1742 "," Gulam Hussain Rahmani "," "
"1 "," 1743 "," Yousaf / Abdul Gafoor "," "
"1 "," 1744 "," Bani Ahmed Palah "," "
"1 "," 1745 "," Ramzan / Sher M Doji "," "
"1 "," 1746 "," Haji Imteaz Konslar "," 0301-6588402"
"1 "," 1747 "," Tariq Saleem Noorka "," "
"1 "," 1748 "," Ch Bashir Ahmed "," "
"1 "," 1749 "," Izhar / Abdul Gafoor "," "
"1 "," 1750 "," Afzaal Saddiq yawar "," "
"1 "," 1751 "," Rafiq Bejli Wala "," "
"1 "," 1752 "," Abdul Gafoor Malak "," "
"1 "," 1753 "," Dr Rasheed  "," 0313-6926497"
"1 "," 1754 "," Saleem Bahari Porea "," "
"1 "," 1755 "," Ishfaq Heaty Walea "," 0300-6998891"
"1 "," 1756 "," Brealient Public School "," 0300-6997020"
"1 "," 1757 "," Malah "," 0345-7102497"
"1 "," 1758 "," Munir Ahmed Bahari Porea "," "
"1 "," 1759 "," Ch Anees BA ka "," "
"1 "," 1760 "," Ch Anwar 12-18 Wala "," 0334-7208197"
"1 "," 1761 "," M Aslam Bhatah Waly "," "
"1 "," 1762 "," M Aslam Bhatah Waly "," "
"1 "," 1763 "," Dr Javed "," 0346-7837497"
"1 "," 1764 "," Muhammad Buta "," "
"1 "," 1765 "," Ashraf Meloka "," "
"1 "," 1766 "," Shahid Rakshy Wala "," "
"1 "," 1767 "," Iqbal Mohny ka "," "
"1 "," 1768 "," Nadee Gafoor Yawar "," "
"1 "," 1769 "," M Imran Yawar "," "
"1 "," 1770 "," Amin Yawar "," "
"1 "," 1771 "," Jameel / Gulam Rasool "," "
"1 "," 1772 "," Zafar Iqbla Zafry "," 0344-1209400"
"1 "," 1773 "," Nazir Ahmed Panah geer "," "
"1 "," 1774 "," Qari Sahib "," "
"1 "," 1775 "," Arshad Ahmed Mistry "," "
"1 "," 1776 "," Soofi Abdul Hameed But "," "
"1 "," 1777 "," Habib Meht Porea "," "
"1 "," 1778 "," Mehfooz Masih "," "
"1 "," 1779 "," Amar Bahari Porea "," "
"1 "," 1780 "," Ishteaq Bahari porea "," "
"1 "," 1781 "," Akber Qulfee Faroosh "," "
"1 "," 1782 "," Amin Sagar "," "
"1 "," 1783 "," Javed Dawad ka "," 0343-7303418"
"1 "," 1784 "," Tahir Iqbal Meloka "," "
"1 "," 1785 "," Tahir Iqbal Meloka "," "
"1 "," 1786 "," Fiaz Bahari Porea "," "
"1 "," 1787 "," Abdul Hameed Meht porea "," "
"1 "," 1788 "," Saddiq pehlwan "," "
"1 "," 1789 "," Zahid Anwar Bank Mulazim "," "
"1 "," 1790 "," Govt: Boys School "," "
"1 "," 1791 "," Taler Master Yousaf "," "
"1 "," 1792 "," M Ramzan / M Hussain "," "
"1 "," 1793 "," Hakim Ali Mistry "," 0343-7302130"
"1 "," 1794 "," Mian Tariq Mushaq "," "
"1 "," 1795 "," Umar Daraz Rajpoot "," "
"1 "," 1796 "," Majar Fiaz "," 0300-7590354"
"1 "," 1797 "," Akram Bangi Walea "," "
"1 "," 1798 "," umar Rafiq yawar "," "
"1 "," 1799 "," Umar Mukhtar "," "
"1 "," 1800 "," Aslam Kotea "," 0334-7787668"
"1 "," 1801 "," Rasheed  urf kala Qasai "," "
"1 "," 1802 "," Ali Ahmed Palah "," "
"1 "," 1803 "," M Ali kna "," "
"1 "," 1804 "," Ahmed Akber palahh "," "
"1 "," 1805 "," Tahir Gafoor  "," "
"1 "," 1806 "," Tahir Gafoor  "," "
"1 "," 1807 "," Arshad School mulazim "," "
"1 "," 1808 "," Bashir ahmed Hati Walea "," "
"1 "," 1809 "," Naveed Bla Qasai "," "
"1 "," 1810 "," Sadiq Kashmeeri "," "
"1 "," 1811 "," Shah Ali rakshy Wala "," "
"1 "," 1812 "," Yasin Asslam "," "
"1 "," 1813 "," Saleem Kotea "," "
"1 "," 1814 "," Nasir Taler Master "," "
"1 "," 1815 "," soofi Bashir Ahmed Khokher "," "
"1 "," 1816 "," Arshad / Jeewan "," "
"1 "," 1817 "," Safulrahman "," "
"1 "," 1818 "," Khalid Taler Master "," "
"1 "," 1819 "," Lala M Aslam "," "
"1 "," 1820 "," Khan Kotea "," 0313-6920277"
"1 "," 1821 "," Arshad Ahmed But "," "
"1 "," 1822 "," Haji M Ali  "," "
"1 "," 1823 "," Farakh Mehtab "," 0345-7096447"
"1 "," 1824 "," Mitho Kashmeeri "," "
"1 "," 1825 "," Maqsood kna "," "
"1 "," 1826 "," Cha cha Aslam Tariq "," "
"1 "," 1827 "," Saddiq jat "," "
"1 "," 1828 "," Awais Gapo "," "
"1 "," 1829 "," Abdul Rasheed Niko drea "," "
"1 "," 1830 "," Tahir Sobedar "," 0311-6090907"
"1 "," 1831 "," Shfiq kna "," "
"1 "," 1832 "," Naeem Murghi Froosh "," "
"1 "," 1833 "," Saleem Lahori "," "
"1 "," 1834 "," Haji Saddiq "," "
"1 "," 1835 "," Abdul Jabar Akr porea "," 0344-0714746"
"1 "," 1836 "," Shareef Rana "," 0347-4872200"
"1 "," 1837 "," Sath Akram Kotea "," "
"1 "," 1838 "," Zafar ptcl "," "
"1 "," 1839 "," Master Aslam Zahid "," "
"1 "," 1840 "," Mukhtar Ahmed Hadyet ka "," "
"1 "," 1841 "," Muzmil kotea "," "
"1 "," 1842 "," Altaf Hussan Gapo "," "
"1 "," 1843 "," Zulafqar Ali Rahmani "," "
"1 "," 1844 "," Haji Sarwar gapo "," 0344-2678220"
"1 "," 1845 "," javed Gapu "," 0300-6993497"
"1 "," 1846 "," Haji m Akram gapu "," 0343-7327722"
"1 "," 1847 "," Jameed Meht porea "," "
"1 "," 1848 "," Govt Girls School "," 067-3784192"
"1 "," 1849 "," Hanif Bahaari porea "," "
"1 "," 1850 "," Latif Bahariporea "," "
"1 "," 1851 "," Nadeem Aslam "," "
"1 "," 1852 "," Ali Malook kna "," "
"1 "," 1853 "," Arshad / Shah Muhammad  "," "
"1 "," 1854 "," Akram Noor ka  "," "
"1 "," 1855 "," Saeed  Murge Faroosh "," "
"1 "," 1856 "," Saleem c/o H Abdul Hameed "," "
"1 "," 1857 "," Irfan Maashooq "," "
"1 "," 1858 "," Munir Bahari porea "," "
"1 "," 1859 "," Naeem Sardar gapu "," "
"1 "," 1860 "," Amjed Mehmood Tahir "," 0345-7093397"
"1 "," 1861 "," Naeem Waqar kna "," "
"1 "," 1862 "," Aslam Raja "," "
"1 "," 1863 "," Shkeel Dawood ka "," "
"1 "," 1864 "," Naeem Chaki Wala "," "
"1 "," 1865 "," Amin Kotea "," 0345-7376155"
"1 "," 1866 "," Pasha G Super Stor "," 0334-7191497"
"1 "," 1867 "," Akhter / Noor Muhammad "," "
"1 "," 1868 "," Shah Muhammad Tanoor Wala "," "
"1 "," 1869 "," Mukhtar Ahmed Churea da "," "
"1 "," 1870 "," Arshad Akar porea "," 0344-7314783"
"1 "," 1871 "," Arshad Meloka "," "
"1 "," 1872 "," Talib Hussain guda "," "
"1 "," 1873 "," Ishteaq Dada Kashmeeri "," "
"1 "," 1874 "," Arshad kala kashameeri "," "
"1 "," 1875 "," Afzal Chokidar "," "
"1 "," 1876 "," Master bashir Ahmed Faiz ka "," "
"1 "," 1877 "," Master Munir Ahmed Noora "," "
"1 "," 1878 "," Shrif Bahari porea "," 3437302197"
"1 "," 1879 "," Ramzan  Electrition "," "
"1 "," 1880 "," Saleem Kooch "," "
"1 "," 1881 "," Jameel Mistry "," "
"1 "," 1882 "," Soofi Akram "," 3126361497"
"1 "," 1883 "," Sadiq / Ramzan "," "
"1 "," 1884 "," Faqier Hussain Rerhi Wala "," "
"1 "," 1885 "," Mushtaq Chaki Wala "," 3327204497"
"1 "," 1886 "," M Amin Chadoor "," "
"1 "," 1887 "," Dr M Arshad "," "
"1 "," 1888 "," Aslam / Shah M "," "
"1 "," 1889 "," Abdul Gafoor / Shah M "," "
"1 "," 1890 "," Akram / Gulam M "," "
"1 "," 1891 "," Ramzan / M Hanif "," "
"1 "," 1892 "," Neaz Ahmed kna "," 3448694525"
"1 "," 1893 "," Mukhtar Ahmed kna "," "
"1 "," 1894 "," Imran Jameel "," "
"1 "," 1895 "," Imran Jameel "," "
"1 "," 1896 "," Abdul Shkoor Malak "," "
"1 "," 1897 "," Nadeem Aslam Tanki Wala "," "
"1 "," 1898 "," Jahngir Sial "," "
"1 "," 1899 "," Nasir Hanif Bahari porea "," "
"1 "," 1900 "," Zulafqar Ali "," "
"1 "," 1901 "," Tahir Riaz kotea "," 3127703541"
"1 "," 1902 "," Hanif urf Hanifa "," "
"1 "," 1903 "," Akram Furnicher wala "," "
"1 "," 1904 "," Khalid Saleem Gugi "," "
"1 "," 1905 "," Farzan Ali "," "
"1 "," 1906 "," Jameel Mistry "," "
"1 "," 1907 "," Fardusi Khan "," 3344138920"
"1 "," 1908 "," Saqib Taler Master "," "
"1 "," 1909 "," Shakeel Sardar Mistry "," "
"1 "," 1910 "," M Saddiq Driver "," "
"1 "," 1911 "," Sarwar T M  "," "
"1 "," 1912 "," Arshad Ali Gapu "," 3347192044"
"1 "," 1913 "," Sofi Bashir ahmed "," "
"1 "," 1914 "," Hasan kotea "," 3008536085"
"1 "," 1915 "," Bani Ahmed / fazal "," "
"1 "," 1916 "," Nasir Hanif Bahari porea "," "
"1 "," 1917 "," M Shrif c/o Shafi "," "
"1 "," 1918 "," M Shrif Rahmani "," "
"1 "," 1919 "," Amjed  Ali meloka "," "
"1 "," 1920 "," Abdul Shkoor Rahamani "," "
"1 "," 1921 "," Shrif Mistry "," "
"1 "," 1922 "," Arshad / Sher M "," "
"1 "," 1923 "," Muhammad Zahid  "," "
"1 "," 1924 "," Saleem Ismaeel porea "," "
"1 "," 1925 "," Mian niko drea "," "
"1 "," 1926 "," Saeed Shao ka  "," "
"1 "," 1927 "," Nadeem Driver "," "
"1 "," 1928 "," Latif Sargodhea "," "
"1 "," 1929 "," Abdul khaliq  "," "
"1 "," 1930 "," ishrat Mehtab "," "
"1 "," 1931 "," Foji Hameed Kashmeeri "," "
"1 "," 1932 "," Ajmal / Aslam kna "," "
"1 "," 1933 "," Jameel Dawd ka "," "
"1 "," 1934 "," M Aslam kna "," "
"1 "," 1935 "," M Arshad Nony ka "," "
"1 "," 1936 "," Umar Hayyat  "," "
"1 "," 1937 "," Master Mashooq ali "," "
"1 "," 1938 "," Munir Ahmed Mlah "," "
"1 "," 1939 "," khalid Aalem ka "," "
"1 "," 1940 "," Rasheed Bupari "," "
"1 "," 1941 "," Habib Rahman  "," "
"1 "," 1942 "," Hanif urf Babu Rahmani "," "
