"1 "," 1434 "," Haron Allah Ditta "," 0301-6587897"
"1 "," 1435 "," Yasmin Jaan "," 0341-6185366"
"1 "," 1436 "," Noori Sadiq "," -"
"1 "," 1437 "," Saleem Bashir "," -"
"1 "," 1438 "," Sardar Mashi "," -"
"1 "," 1439 "," Mustaq Allah Ditta "," -"
"1 "," 1440 "," Rasib Fazal  "," -"
"1 "," 1441 "," Sadiq Nama "," -"
"1 "," 1442 "," Boota Masi "," -"
"1 "," 1443 "," Ashraf Mashi "," -"
"1 "," 1444 "," Kasif Mashi "," -"
"1 "," 1445 "," Muneer Sadiq "," -"
"1 "," 1446 "," Krasto Charlas N "," 0306-7736127"
"1 "," 1447 "," Jozaf Bukhs "," -"
"1 "," 1448 "," Kala  Mashi "," -"
"1 "," 1449 "," Zulfqar Bhatti "," -"
"1 "," 1450 "," Sardar Yousaf "," -"
"1 "," 1451 "," Boota Kanam "," -"
"1 "," 1452 "," Saleen Waesan "," 0301-6925977"
"1 "," 1453 "," Younas/Smoael "," -"
"1 "," 1454 "," Asif Jan "," -"
"1 "," 1455 "," Abe Saloom Jan "," -"
"1 "," 1456 "," Munir Manik  "," -"
"1 "," 1457 "," Younas Dani L  "," -"
"1 "," 1458 "," Aasher Barkat "," "
"1 "," 1459 "," Jozaf / Manak "," -"
"1 "," 1460 "," Sarfraz Smoil Deen "," -"
"1 "," 1461 "," Aslam Saddiq "," -"
"1 "," 1462 "," williom Bashir "," -"
"1 "," 1463 "," Ishaq Jamal "," -"
"1 "," 1464 "," Buta Hadait "," 0302-7999283"
"1 "," 1465 "," Sadar Hameed "," -"
"1 "," 1466 "," Kala Ranjha "," -"
"1 "," 1467 "," Saber Barakat "," -"
"1 "," 1468 "," Munshi Sardar "," 0306-4983294"
"1 "," 1469 "," Dilshad Yaquob "," 0344-2448948"
"1 "," 1470 "," Shrif Saddq "," 0303-4834239"
"1 "," 1471 "," Maqbool Anait "," 0301-4901157"
"1 "," 1472 "," David Barakat "," -"
"1 "," 1473 "," Rehmet Sawati "," 0303-7044670"
"1 "," 1474 ","  Javed Rehmat Sawati "," 0304-7715009"
"1 "," 1475 "," Neamat Barakat "," 0301-4884500"
"1 "," 1476 "," Daneat Nathai l "," 0302-7962416"
"1 "," 1477 ","  Arshad Masee "," 0344-7391079"
"1 "," 1478 "," Pervez Sawati "," 0306-2694883"
"1 "," 1479 "," Hameed Pehlwan "," 0301-4619674"
"1 "," 1480 "," Iqbal Barkat "," 0300-7596232"
"1 "," 1481 "," Youqob Prem "," 0304-5541379"
"1 "," 1482 "," Asger Umer Deen "," 0307-8719679"
"1 "," 1483 "," Shkeel Anait "," 0307-6562377"
"1 "," 1484 "," Habel Jaan  "," -"
"1 "," 1485 "," Fazal Tara "," -"
"1 "," 1486 "," Shokat Tara "," -"
"1 "," 1487 "," Noor Anait "," 0342-1571377"
"1 "," 1488 "," Master Amin "," "
"1 "," 1489 "," Riaz Mushtaq "," "
"1 "," 1490 "," Rasheed Mehboob "," 0303-8126528"
"1 "," 1491 "," Saleem  "," "
"1 "," 1492 "," Majeed Mehboob "," "
"1 "," 1493 "," Lal Taaj "," "
"1 "," 1494 "," Saleem Barkat "," "
"1 "," 1495 "," Dr Arif "," "
"1 "," 1496 "," Amjad Mistry "," "
"1 "," 1497 "," Asher Saleem Barkat "," "
"1 "," 1498 "," Avez Akhter "," 0306-7891409"
"1 "," 1499 "," Lal Deen Gil "," "
"1 "," 1500 "," Iqbal Gil "," 0304-3231936"
"1 "," 1501 "," Hamees Barkat "," "
"1 "," 1502 "," Pervez Barkat "," "
"1 "," 1503 "," Guger Dukan Dar "," "
"1 "," 1504 "," Khuda Bukhsh "," "
"1 "," 1505 "," Peader Meju "," "
"1 "," 1506 "," Salbert Amadu L "," "
"1 "," 1507 "," Master Younes "," "
"1 "," 1508 "," Elder Kanth Barkat "," 0308-8714377"
"1 "," 1509 "," Hazki L "," 0300-7596376"
"1 "," 1510 "," Abid Yousaf "," "
"1 "," 1511 "," Maqsood Chargh "," "
"1 "," 1512 "," Anwar Yazir "," "
"1 "," 1513 "," M Ijaz "," 0302-7333662"
"1 "," 1514 "," Chirman Abdul Ghani "," 0300-7545965"
"1 "," 1515 "," M Nawaz "," 0302-4452717"
"1 "," 1516 "," Mukhat Jat "," 0306-7247263"
"1 "," 1517 "," Haji M Arshad jt "," "
"1 "," 1518 "," Reasat Ali "," "
"1 "," 1519 "," Akram Bhati "," "
"1 "," 1520 "," Maqsood Ali "," "
"1 "," 1521 "," Mehmood Rasha "," "
"1 "," 1522 "," M younas  "," "
"1 "," 1523 "," Shahid Mukhar "," "
"1 "," 1524 "," Foji Safdar Ali "," "
"1 "," 1525 "," Sarwar Ali "," "
"1 "," 1526 "," Liaqat Ali "," "
"1 "," 1527 "," Mushtaq Farzand Deen "," "
"1 "," 1528 "," Abdul Aziz "," "
"1 "," 1529 "," M aslam "," "
"1 "," 1530 "," M Arshad "," "
"1 "," 1531 "," Shah m "," "
"1 "," 1532 "," M Qasim "," "
"1 "," 1533 "," M Ishaq "," "
"1 "," 1676 "," Arshad Ali Gapu "," 0334-7192044"
"1 "," 1677 "," Mian Muhammad Arshad "," 0300-7590576"
"1 "," 1678 "," Mian Muhammad Arshad "," 0300-7590576"
"1 "," 1679 "," Hakeem Akber Gapu "," 0321-9793149"
"1 "," 1680 "," M Ashraf Wapda "," "
"1 "," 1681 "," Nadeem Security Gard "," "
"1 "," 1682 "," M Saeed Pala "," "
"1 "," 1683 "," Shahzad Nadeem Gapu "," 0334-7205630"
"1 "," 1684 "," Zulafqar Ali Meht porea "," "
"1 "," 1685 "," Dr Rehan Wali "," "
"1 "," 1686 "," M Khalid Aalem Ka "," "
"1 "," 1687 "," Abdul Gafar Niko drea "," 0347-7417897"
"1 "," 1688 "," Aslam / Gulzar "," 0346-7814557"
"1 "," 1689 "," Nazir Ahmed Gamo Ka "," "
"1 "," 1690 "," M Aslam  "," "
"1 "," 1691 "," Hanif Patwari "," 0334-7205630"
"1 "," 1692 "," M Ali Khalifa "," "
"1 "," 1693 "," M Shahid Gapu "," 0322-6818497"
"1 "," 1694 "," Dr M Saeed "," 0345-7103497"
"1 "," 1695 "," Aamer Shrif Gapu "," "
"1 "," 1696 "," Master Aslam Bilal "," "
"1 "," 1697 "," javed Gapu "," 0300-6993497"
"1 "," 1698 "," Tahir kotea "," 0342-6977497"
"1 "," 1699 "," Shahid Akber porea "," "
"1 "," 1700 "," H Abdul Hameed "," "
"1 "," 1701 "," Malak Saddiq "," 0344-7307597"
"1 "," 1702 "," Zafar Iqbal mlooka "," "
"1 "," 1703 "," Bashir Ahmed Meht porea "," 0342-6976997"
"1 "," 1704 "," Master Abdul Waheed "," "
"1 "," 1705 "," Haji Faqeer m "," "
"1 "," 1706 "," Ahmed Shopkeeper "," "
"1 "," 1707 "," Bashir Ahmed Gamooka "," "
"1 "," 1708 "," Mukhtar Ahmed Mohny ka "," 0313-6904900"
"1 "," 1709 "," Naeem Sardar gapu "," 0334-7206797"
"1 "," 1710 "," Neaz Ahmed Shopkeeper  "," "
"1 "," 1711 "," Rafiq Dawd ka "," "
"1 "," 1712 "," Shbir Ahmed Dawd ka "," "
"1 "," 1713 "," Mukhtar Ahmed Raja "," 0300-6994697"
"1 "," 1714 "," Faqir Hussain Raja "," "
"1 "," 1715 "," Zahid Fooji "," "
"1 "," 1716 "," Shokat Ali Rahmani "," "
"1 "," 1717 "," M Ashraf Qootea "," 0334-7201297"
"1 "," 1718 "," Amin Sardar gapu "," 0300-7591009"
"1 "," 1719 "," Anees / Rasheed "," "
"1 "," 1720 "," Dr M Iqbal "," "
"1 "," 1721 "," Jamah Masjid "," "
"1 "," 1722 "," Madrsah "," "
"1 "," 1723 "," Brealient Public School "," 0300-6997020"
"1 "," 1724 "," Masjid Ahal e Hadees "," "
"1 "," 1725 "," Arshad Ahmed Mughal "," "
"1 "," 1726 "," Ashaq H Mistry "," "
"1 "," 1727 "," Saeed / Manzoor "," "
"1 "," 1728 "," Arshad / Kareem Bukhsh "," "
"1 "," 1729 "," Sagir Ali Rahmani "," 0311-6274880"
"1 "," 1730 "," Abdul Gafar  "," "
"1 "," 1731 "," Rafiq / Ismaeel "," "
"1 "," 1732 "," Mushtaq Ahmed Nasir "," 0344-7009807"
"1 "," 1733 "," Rafiq / Badur o Deen "," "
"1 "," 1734 "," Hashmat Ali  "," "
"1 "," 1735 "," Wali Muhammad Rahmani "," "
"1 "," 1736 "," M Nawaz / Wali M "," "
"1 "," 1737 "," Yousaf  / Yaqoob "," "
"1 "," 1738 "," Shahid Mehmood Yawar "," "
"1 "," 1739 "," Rasheed / Ismaeel Rahmani "," "
"1 "," 1740 "," Irfan C/o Baba Gulam Muhammad "," "
"1 "," 1741 "," Ashraf Panah geer "," "
"1 "," 1742 "," Gulam Hussain Rahmani "," "
"1 "," 1743 "," Yousaf / Abdul Gafoor "," "
"1 "," 1744 "," Bani Ahmed Palah "," "
"1 "," 1745 "," Ramzan / Sher M Doji "," "
"1 "," 1746 "," Haji Imteaz Konslar "," 0301-6588402"
"1 "," 1747 "," Tariq Saleem Noorka "," "
"1 "," 1748 "," Ch Bashir Ahmed "," "
"1 "," 1749 "," Izhar / Abdul Gafoor "," "
"1 "," 1750 "," Afzaal Saddiq yawar "," "
"1 "," 1751 "," Rafiq Bejli Wala "," "
"1 "," 1752 "," Abdul Gafoor Malak "," "
"1 "," 1753 "," Dr Rasheed  "," 0313-6926497"
"1 "," 1754 "," Saleem Bahari Porea "," "
"1 "," 1755 "," Ishfaq Heaty Walea "," 0300-6998891"
"1 "," 1756 "," Brealient Public School "," 0300-6997020"
"1 "," 1757 "," Malah "," 0345-7102497"
"1 "," 1758 "," Munir Ahmed Bahari Porea "," "
"1 "," 1759 "," Ch Anees BA ka "," "
"1 "," 1760 "," Ch Anwar 12-18 Wala "," 0334-7208197"
"1 "," 1761 "," M Aslam Bhatah Waly "," "
"1 "," 1762 "," M Aslam Bhatah Waly "," "
"1 "," 1763 "," Dr Javed "," 0346-7837497"
"1 "," 1764 "," Muhammad Buta "," "
"1 "," 1765 "," Ashraf Meloka "," "
"1 "," 1766 "," Shahid Rakshy Wala "," "
"1 "," 1767 "," Iqbal Mohny ka "," "
"1 "," 1768 "," Nadee Gafoor Yawar "," "
"1 "," 1769 "," M Imran Yawar "," "
"1 "," 1770 "," Amin Yawar "," "
"1 "," 1771 "," Jameel / Gulam Rasool "," "
"1 "," 1772 "," Zafar Iqbla Zafry "," 0344-1209400"
"1 "," 1773 "," Nazir Ahmed Panah geer "," "
"1 "," 1774 "," Qari Sahib "," "
"1 "," 1775 "," Arshad Ahmed Mistry "," "
