"1 "," 1 "," Baba Mustafa "," 0302-4656382"
"1 "," 2 "," Master Fateh Muhammad "," 0303-4308718"
"1 "," 3 "," M Yaquoob "," 0304-3005467"
"1 "," 4 "," M Basheer "," 0308-8563650"
"1 "," 5 "," Maqsood "," 0302-7443105"
"1 "," 6 "," Master Nazir Ahmed "," 0301-6570096"
"1 "," 7 "," Master M Ashraf "," 0302-3549164"
"1 "," 8 "," Master Iqbal Number Dar "," "
"1 "," 9 "," SunaUllah Numberdar "," 0306-6747796"
"1 "," 10 "," Shokat Number Dar "," 0302-3768599"
"1 "," 11 "," Abdullah /Suraj "," 0301-5127217"
"1 "," 12 "," Anait Ullah "," 0300-7510281"
"1 "," 13 "," Shamah /Baba Rana "," "
"1 "," 14 "," M Nawaz "," "
"1 "," 15 "," M Hussain "," 0308-6067408"
"1 "," 16 "," M Ramzan "," 0302-7457054"
"1 "," 17 "," M BAShir "," 0300-7727896"
"1 "," 18 "," M Rafiq "," 0346-5220794"
"1 "," 19 "," M Abdul Rahman "," 0303-3600323"
"1 "," 20 "," M Saleem "," "
"1 "," 21 "," M Maqbool "," "
"1 "," 22 "," Abdul Satar "," "
"1 "," 23 "," M Shokat  "," "
"1 "," 24 "," Sher Muhammad "," 0308-4779530"
"1 "," 25 "," M Yaquob "," 0307-6933579"
"1 "," 26 "," M Maqsood "," "
"1 "," 27 "," M Mansha "," 0307-8118522"
"1 "," 28 "," M Asgar "," "
"1 "," 29 "," Baba Muhammad "," "
"1 "," 30 "," Muhammad Shhafi "," "
"1 "," 31 "," Muhammad Abdullah "," "
"1 "," 32 "," M Arshad "," 0300-7731400"
"1 "," 33 "," M Aslam "," 0347-6225831"
"1 "," 34 "," M Imran "," 0304-2882996"
"1 "," 35 "," M Abas  "," 0300-7722896"
"1 "," 36 "," Maher Amanat "," 0300-7728396"
"1 "," 37 "," M Younas "," "
"1 "," 38 "," M Tufail "," 0300-7735796"
"1 "," 39 "," M Yousaf "," 0300-4372763"
"1 "," 40 "," Mistry Gulam Mustafa "," 0302-7838380"
"1 "," 41 "," Yasin Muhammad "," 0300-7735821"
"1 "," 42 "," Liaqat Jat "," "
"1 "," 43 "," Baba Gul Muhammad "," "
"1 "," 44 "," Shah Behram Khan "," "
"1 "," 45 "," Al-Qasim Oil Mills "," 0306-5589182"
"1 "," 46 "," Ch Altaf "," "
"1 "," 47 "," Mi Latifa "," "
"1 "," 48 "," Ch Arshad "," 0344-7324800"
"1 "," 49 "," Mahabet Daha "," "
"1 "," 50 "," Haji Nazir Ahmed "," 0302-7723911"
"1 "," 51 "," M Hussain "," 0301-7940178"
"1 "," 52 "," M Anwar Daha "," "
"1 "," 53 "," M Farooq Daya "," 0304-1238551"
"1 "," 54 "," Haji Saddiq  "," "
"1 "," 55 "," Aziz Bhati "," "
"1 "," 56 "," Zafar  "," "
"1 "," 57 "," Ali Ahmed "," "
"1 "," 58 "," M Ramzan "," "
"1 "," 59 "," M Iqbal "," "
"1 "," 60 "," Liaqat Ali "," 0303-0718128"
"1 "," 61 "," M Shafiq Target "," "
"1 "," 62 "," Ch Islam "," "
"1 "," 63 "," Aleem Shahh "," "
"1 "," 64 "," Abdul Ghafoor "," "
"1 "," 65 "," Ijaz Khan "," "
"1 "," 66 "," Mistary Haji Bashir "," 0302-7398104"
"1 "," 67 "," Yousaf "," "
"1 "," 68 "," Foji Abdul Rasheed "," "
"1 "," 69 "," Foji Hanif "," "
"1 "," 70 "," Dr Rashid "," "
"1 "," 71 "," Ghulam Farid Sial "," "
"1 "," 72 "," Dr Basheer "," "
"1 "," 73 "," Anwer Dhobi "," "
"1 "," 74 "," Sharin Khan "," 0300-7728194"
"1 "," 75 "," Rashid Jat "," "
"1 "," 76 "," Ghulam Shabir jat "," "
"1 "," 77 "," M Ashiq jat "," "
"1 "," 78 "," Raja Azeem "," 03012-6835011"
"1 "," 79 "," Abdul Hameed "," "
"1 "," 80 "," Hafaz khan "," 0301-4639160"
"1 "," 81 "," Falak sher kol "," 0307-6385263"
"1 "," 82 "," Ilam Deen "," 0301-7006645"
"1 "," 83 "," Ghulam Muhammad "," -"
"1 "," 84 "," Laab Deen "," -"
"1 "," 85 "," Mushtaq khan "," -"
"1 "," 86 "," M Iqbal "," -"
"1 "," 87 "," Hafaz Iqbal "," 0303-4316416"
"1 "," 88 "," M Riaz "," -"
"1 "," 89 "," haji Maqbool "," 0301-4820996"
"1 "," 90 "," M Ameen "," -"
"1 "," 91 "," M Rafiq "," 0304-8255372"
"1 "," 92 "," Mahr Liaqat Ali "," -"
"1 "," 93 "," Haji Aslam  "," 0307-7369703"
"1 "," 94 "," M Bashir Patwari "," -"
"1 "," 95 "," Mubarek Ali "," -"
"1 "," 96 "," Matloob Daha "," -"
"1 "," 97 "," Arshaad Daha "," -"
"1 "," 98 "," Master Bashir "," -"
"1 "," 99 "," Master Mushtaq "," -"
"1 "," 100 "," Haiji Munir ahmad "," -"
"1 "," 155 "," Azam /Aslam "," 0343-0167603"
"1 "," 156 "," Asgar Ali /Abdul Latif "," 0333-6291096"
"1 "," 157 "," Akhter /Sarwar "," 0333-9941766"
"1 "," 158 "," Hasnoo BB "," 0344-7200924"
"1 "," 159 "," Anwar /Iqbal "," 0307-6992478"
"1 "," 160 "," Hameed Ullah /Barkat Ullah "," 0342-6977320"
"1 "," 161 "," Zaka Ullah /Rahmat Ullah "," 0300-7590166"
"1 "," 162 "," M Yousaf "," 0334-7797302"
"1 "," 163 "," Akhter / Sadiq "," 0333-6261340"
"1 "," 164 "," Farooq Ibraheem "," 0345-7035166"
"1 "," 165 "," M Saddiq "," 0334-9363721"
"1 "," 166 "," Farooq /Abdul Hameed "," 0343-6544066"
"1 "," 167 "," Fooji Akram Deen "," 0331-7980579"
"1 "," 168 "," M Aslam /Sher Muhammad "," "
"1 "," 169 "," Jamah Masjid Farooq e Azam "," 0347-2590166"
"1 "," 170 "," Nazir /M Iqbal "," 0333-4815241"
"1 "," 171 "," Hafeez Ullah "," 0301-7949016"
"1 "," 172 "," Sameeh Ullah "," 0345-6182449"
"1 "," 173 "," Dilber Hussain "," 0332-7791696"
"1 "," 174 "," Fooji Anait "," 0331-7297195"
"1 "," 175 "," Gulam Rasool "," 0345-2896628"
"1 "," 176 "," Saber Ibraheem "," 0345-7035166"
"1 "," 177 "," Altaf /Yousaf "," 0347-6396166"
"1 "," 178 "," Hafeez Ullah "," 0301-7949016"
"1 "," 179 "," Gulam Mustafa "," 0343-6544066"
"1 "," 180 "," Abdul Jabar "," 3423740166"
"1 "," 181 "," Abdul Waheed "," 0333-4015241"
"1 "," 182 "," Asgar Ali    "," 0347-9765753"
"1 "," 183 "," Abdul Latif "," 0333-6291096"
"1 "," 184 "," M Yousaf "," 0335-7325868"
"1 "," 185 "," Master Yasin "," 0334-7193166"
"1 "," 186 "," M Yasin "," 0333-4551833"
"1 "," 187 "," M Nadim "," 0333-6263260"
"1 "," 188 "," Gulam Rasool "," 0344-7312025"
"1 "," 189 "," Master Tahir "," 0334-7162659"
"1 "," 190 "," Naseer Ahmed "," 0341-1162701"
"1 "," 191 "," M Saddiq "," 0333-6261340"
"1 "," 192 "," Fofi M Iqbal "," 0333-4815241"
"1 "," 193 "," M Ishtyaq "," 0347-6396166"
"1 "," 194 "," M Yasin "," 0331-7172879"
"1 "," 195 "," M Mansha "," 0331-7172879"
"1 "," 196 "," Sakhi Muhammad "," 0343-2449803"
"1 "," 197 "," M Ashrf Arain "," 0344-3602673"
"1 "," 198 "," Abdul Hakeem "," 0347-7415270"
"1 "," 199 "," Fooji Tanveer  "," 0334-7722154"
"1 "," 200 "," M Saddiq "," 0334-7797302"
"1 "," 201 "," M Anwar  "," 0334-7797302"
"1 "," 202 "," M Amir  "," 0332-4237716"
"1 "," 203 "," Fooji M Aslam "," 0345-6519166"
"1 "," 204 "," Javed Akhter "," 0342-1577166"
"1 "," 205 "," M Akhter "," 0333-6291096"
"1 "," 206 "," Mahboob /Abdul Aziz "," 0300-7734003"
"1 "," 207 "," Sher Ahmed "," 0334-7154065"
"1 "," 208 "," Dr Munwar "," 0331-7951366"
"1 "," 209 "," M Yasin "," 0331-7951366"
"1 "," 210 "," M Naeem /Nazir Ahmed "," 0345-7398879"
"1 "," 211 "," M Buta "," 0341-7908685"
"1 "," 212 "," Ateet Ur Rahman  "," 0333-6273877"
"1 "," 213 "," Talib /M yousaf "," 0341-6265716"
"1 "," 214 "," Suraj / Ali M  "," 0333-6295380"
"1 "," 215 "," M Ali /Noor M  "," 0335-7536716"
"1 "," 216 "," Abdul Hafeez "," 0334-6077166"
"1 "," 217 "," M Akhter "," 0333-6261340"
"1 "," 218 "," M Ishaq "," 0342-1577166"
"1 "," 219 "," Gulam Mustafa "," 0343-6544066"
"1 "," 220 "," M Hanif "," 0307-6992478"
"1 "," 221 "," Khadum /Sharif "," 0344-4860863"
"1 "," 222 "," Allah Rakha /Khuda Bukhsh "," 0304-4054561"
"1 "," 223 "," Nwaz /Ghulam Rasool "," "
"1 "," 224 "," Zulafqar /Allah Bukhsh "," "
"1 "," 225 "," Ramzan Jalandhri "," "
"1 "," 226 "," Iqbal Jalandhri "," "
"1 "," 227 "," Rasheed "," 0341-1640995"
"1 "," 228 "," Yasin /Shaban "," 0346-1646347"
"1 "," 229 "," Majeed "," "
"1 "," 230 "," Imram Nai "," "
"1 "," 231 "," Master Wakeel "," "
"1 "," 232 "," Yousaf /Talib "," "
"1 "," 233 "," Khalid /Talib "," "
"1 "," 234 "," Saif Ullah "," "
"1 "," 235 "," Rasheed "," "
"1 "," 236 "," Ghafar  "," "
"1 "," 237 "," Naeem /Waris "," 0342-7296546"
"1 "," 238 "," Jamshed "," 0341-8717358"
"1 "," 239 "," Safdar /Jalal "," 0346-4792191"
"1 "," 240 "," Saleem "," 0346-7083741"
"1 "," 241 "," Imran Sadiq "," "
"1 "," 242 "," Riasat /Razaq "," "
"1 "," 243 "," Arshad /Jameel "," 0345-6124099"
"1 "," 244 "," Jabar /Shbir "," 0343-7304246"
"1 "," 245 "," Aslam /Abdul "," "
"1 "," 246 "," Intazar /Ramzan "," "
"1 "," 247 "," Allah Ditta "," "
"1 "," 248 "," Rao Jan Sher "," "
"1 "," 249 "," Shaokat Jameel "," "
"1 "," 250 "," Kashif /Jamshed "," 0345-2218846"
"1 "," 251 "," Abdul Wakeel "," 0345-7033211"
"1 "," 252 "," Tanveer /Khalil "," "
"1 "," 253 "," Tiab /Khushi "," "
"1 "," 254 "," Rao Shabir  "," 0343-7482558"
"1 "," 255 "," Syed Hassan "," 0346-8668246"
"1 "," 256 "," M Nawaz "," 0346-7079700"
"1 "," 257 "," Zafar Iqbal "," 0301-2109034"
"1 "," 258 "," Ramzan Kambho "," 0306-5780046"
"1 "," 259 "," Gul Muhammad "," 0307-2537361"
"1 "," 260 "," Billal  Arrian "," 0342-7285167"
"1 "," 261 "," Abas Arrian "," 0301-4133235"
"1 "," 262 "," Shakoor Sial "," 0300-7352102"
"1 "," 263 "," Manzoor Sial "," 0344-1457803"
"1 "," 264 "," Abdul Raof  "," 0306-9007146"
"1 "," 265 "," Iqbal Buta "," 0342-7090945"
"1 "," 266 "," H Amin "," "
"1 "," 267 "," Ilyas "," 0308-1755076"
"1 "," 268 "," Kutab Deen "," 0345-6586946"
"1 "," 269 "," Riaz Nai "," 0304-5040814"
"1 "," 270 "," Latif Kambho "," 0341-9633146"
"1 "," 271 "," Ashraf  "," 0346-1726830"
"1 "," 272 "," taaj Wains "," 0346-2584052"
"1 "," 273 "," Arshad Wains "," 0346-2584052"
"1 "," 274 "," Toufiq/Sher "," 0342-8746480"
"1 "," 275 "," Tahir Sial "," 0307-5423942"
"1 "," 276 "," Afzal/Laal "," 0346-4811630"
"1 "," 277 "," H Luqman "," 0343-7274644"
"1 "," 278 "," Ramzan Arain "," 0306-4496183"
"1 "," 279 "," Zahoor ahmed / M. Sarwar "," "
"1 "," 280 "," Aeeda / Barkat Ali "," "
"1 "," 281 "," Malik Ishaq /Lal deen "," "
"1 "," 282 "," Allaha Ditta/ Bhag Deen "," 0300-7720144"
"1 "," 283 "," Abdul Latif / Khushi M "," 0308-6994524"
"1 "," 284 "," Madrassa Sakinatulloom "," "
"1 "," 285 "," M Saber/ Akram "," 0321-7673805"
"1 "," 286 "," M Latif / Allah Ditta "," "
"1 "," 287 "," Lal Mai / Raheem Bukhsh "," 0308-4999015"
"1 "," 288 "," Salamat Ali "," 0305-6725821"
"1 "," 289 "," M Ijaz / Rafiq "," "
"1 "," 290 "," Govt: PS 15/wb "," "
"1 "," 291 "," M Sharif M Ibraheem "," 0344-6159324"
"1 "," 292 "," M Ashraf / Rahmat "," 0334-4048584"
"1 "," 293 "," M Mukhtar / Rahmat "," 0305-4462766"
"1 "," 294 "," Gulzar Ahmed/ Rahmat "," "
"1 "," 295 "," Manzoor Ahmed/ M Nwaz "," "
"1 "," 296 "," M Hussain / Khurisheed "," "
"1 "," 297 "," Sahab Deen / Akram Deen "," "
"1 "," 298 "," M Adrees / Ahmed Deen "," "
"1 "," 299 "," M Rafiq / Ahmed Deen "," "
"1 "," 300 "," M Sadiq / Ahmed Deen "," 0303-3149199"
"1 "," 301 "," M Sarwar / Fazal Muhammad "," 0341-7395963"
"1 "," 302 "," M Akaram / Ali Muhammad "," 0332-7173515"
"1 "," 303 "," Zubada BB  "," 0312-6530715"
"1 "," 304 "," M Yaseen / Rafiq "," 0307-8549186"
"1 "," 305 "," M Ramzan / Ali Muhammad "," 0306-7949017"
"1 "," 306 "," M Ibraheem "," 0334-3040146"
"1 "," 307 ","  Abdul Rasheed "," 0323-7242317"
"1 "," 308 "," Jam Muhammad  "," 3417426903"
"1 "," 309 "," M Aslam "," "
"1 "," 310 ","  Hadaet Ali "," "
"1 "," 311 "," Riaz Ahmed "," "
"1 "," 312 "," Arshad BB "," "
"1 "," 313 "," M yousaf  "," "
"1 "," 314 "," Zulfaqar / Deen M  "," "
"1 "," 315 "," Munwar Hussain/ M Sadiq "," "
"1 "," 316 "," M Sarwar / M yousf "," 0333-6278115"
"1 "," 317 "," M Anwar / Saddiq "," "
"1 "," 318 "," M Ashraf / M Buta "," "
"1 "," 319 "," Amjad Ali / M yousaf "," "
"1 "," 320 "," M ishfaq / M Rafiq "," "
"1 "," 321 "," Waris Ali / Gulam ali "," "
"1 "," 322 ","  M Ramzan / Munishi "," 0308-4298061"
"1 "," 323 "," M Hanif / Ibraheem "," 0306-6836708"
"1 "," 324 "," Shokat Ali "," "
"1 "," 325 "," Mukhtar Ahmed "," "
"1 "," 326 "," Abdul Star "," "
"1 "," 327 "," M Aslam "," "
"1 "," 328 "," Yaqooq Ahmed "," "
"1 "," 329 "," Abdul Alim "," 0344-0101655"
"1 "," 330 "," Ali Ahmed "," "
"1 "," 331 "," M Akram / Buta "," "
"1 "," 332 "," M Luqman "," "
"1 "," 333 "," Mukhtar Ahmed "," "
"1 "," 334 "," Nasir Ahmed / Sardar Ali "," "
"1 "," 335 "," M Saddeq / Suraj Ali "," "
"1 "," 336 "," M Shafi / Ismaeel "," "
"1 "," 337 "," M Afsar "," "
"1 "," 338 "," M Arshad Khan "," "
"1 "," 339 "," M Rafiq / Ismaeel "," 0303-7988497"
"1 "," 340 "," M Abass / Nazir Ahmed "," 0338-6272812"
"1 "," 341 "," M Ilyas / Nazir "," 0334-7204715"
"1 "," 342 "," Javed / Talib  "," "
"1 "," 343 "," M Asgar/ Khazer Hiat "," "
"1 "," 344 "," Allah Yar  / Ahmed Yar "," "
"1 "," 345 ","  M Rafiq / Khushi "," "
"1 "," 346 "," Liaqat ali/ Khushi m "," "
"1 "," 347 "," Noshair / Ismaeel "," "
"1 "," 348 ","  Neamat Ali "," "
"1 "," 349 "," M Mumtaz / Imam Deen "," "
"1 "," 350 "," Neaz Muhammad "," "
"1 "," 351 "," Jaan Muhammad "," "
"1 "," 352 "," Taaj Muhammad "," "
"1 "," 353 "," Mukhtar Ahmed "," "
"1 "," 354 "," Waris Ali / faqir M "," "
"1 "," 355 "," M Irshad / Ali Muhammad "," "
"1 "," 356 "," Abdul Star / Umar Deen "," "
"1 "," 357 "," Asgar Ali / Imam Deen "," "
"1 "," 358 "," Gulam Abass / fiaz "," "
"1 "," 359 "," Sultan Balooch "," "
"1 "," 360 "," M Iqbal / Abdul Hameed "," "
"1 "," 361 "," M Bilal / Abdul Hameed "," "
"1 "," 362 "," M Javed / M Deen "," "
"1 "," 363 "," M Hussain/ Umar Deen "," "
"1 "," 364 "," M Javed ./ M Sharif "," "
"1 "," 365 "," Allah Ditta / M Shafei "," "
"1 "," 366 "," Nasir Ulllah/ Abdul Aleem "," "
"1 "," 367 ","  Abdul Majeed / Jalal Deen "," "
"1 "," 368 "," M Saleem / Bashir Ahmed "," 0334-7160915"
"1 "," 369 "," BABA Bashir Ahmed "," "
"1 "," 370 "," M Aslam / Saber "," "
"1 "," 371 "," Talib Hussain / M Younis "," "
"1 "," 372 "," Tariq Mehmood/ Umar Hyeat "," "
"1 "," 373 "," Abdul Qume / Manzoor Ahmed "," 0334-7487961"
"1 "," 374 "," Haji  M Hussaim / M Aalim "," "
"1 "," 375 "," Mudsir Hussain./ Khamed Hussain "," 3007432083"
"1 "," 376 "," shahzad Amjed/ M Amjed "," "
"1 "," 377 "," Nazir Ahmed/ Rajab Ali "," "
"1 "," 378 "," M Nawaz / Adrees "," "
"1 "," 662 "," Shafqat Ali "," 0300-8936278"
"1 "," 663 "," Zulafqar Ali "," 0311-4128067"
"1 "," 664 "," Talib Hussain Cheema "," 0302-7722-876"
"1 "," 665 "," Barakat Ali Bhati "," 0302-7247524"
"1 "," 666 "," Barakat Ali Bhati "," 0302-7247524"
"1 "," 667 "," Asgar Ali Bhati "," 0302-7247524"
"1 "," 668 "," Liaqat Ali Jat "," 0303-0429613"
"1 "," 669 "," Dr M Saleem "," 0304-3563991"
"1 "," 670 "," M Iqbal Arian "," 0301-4841078"
"1 "," 671 "," Raja Iqrar Hussain "," 0301-6507976"
"1 "," 672 "," Raja Gulzar Hussain "," 0301-6507976"
"1 "," 673 "," Raja Nasar Ahmed "," 0301-6507976"
"1 "," 674 "," Amanat Ali Cheema "," 0307-7931601"
"1 "," 675 "," Khan Zafar Iqbal "," 0302-7336749"
"1 "," 676 "," Raja Ramzan "," 0321-5552958"
"1 "," 677 "," Malak Faqir Hussain "," 0300-7944076"
"1 "," 678 "," Malak M Nawaz "," 0300-9349614"
"1 "," 679 "," Zahid Hussain Arian "," 0303-7876372"
"1 "," 680 "," Malak M Asgar  "," 0307-2469920"
"1 "," 681 "," Malak M Nishan "," 0307-6125711"
"1 "," 682 "," Zulafqar Ali "," 0301-7934406"
"1 "," 683 "," Shokat Ali Jat "," 0300-7739376"
"1 "," 684 "," Rana Intazar Hussain "," 0306-5332922"
"1 "," 685 "," Malak M Rafiq "," 0303-6230826"
"1 "," 686 "," Malak M Hanif "," 0302-7206894"
"1 "," 687 "," Raja Talib Hussain "," 03023-6809860"
"1 "," 688 "," Raja Talib Hussain "," 0302-6809860"
"1 "," 689 "," M Riaz Sindhi "," 0300-2087196"
"1 "," 690 "," M Riaz Sindhi "," 0300-2087196"
"1 "," 691 "," M Anwar Sindhi "," 0304-9187160"
"1 "," 692 "," M Anwar Sindhi "," 0304-9187160"
"1 "," 693 "," Master Zafar Iqbal "," 0305-8309876"
"1 "," 694 "," Nasir Ahmed Jatr "," 0341-6526583"
"1 "," 695 "," Master Abdul Khaliq "," 0301-7946093"
"1 "," 696 "," Bashir Ahmed Mughal "," 0301-4841174"
"1 "," 697 "," Roshan Deen Arian "," 0332-7759380"
"1 "," 698 "," Roshan Deen Arian "," 0332-7759380"
"1 "," 699 "," Mazhar Hussain Arian "," 0302-2048064"
"1 "," 700 "," HafeezUllah "," 0306-6850921"
"1 "," 701 "," BABa  M Jameel "," 0342-0850069"
"1 "," 702 "," Liaqat Ali Arian "," 0300-7735502"
"1 "," 703 "," M Buta "," 0302-7249402"
"1 "," 704 "," M Akram "," 0302-7249402"
"1 "," 705 "," M Aslam Arian "," 0345-6134474"
"1 "," 706 "," M Aslam Arian "," 0345-6134474"
"1 "," 707 "," M Amin Ansari "," 033-7739851"
"1 "," 708 "," Ghaznfar ali Bhati "," 0305-8529163"
"1 "," 709 "," M Amin Bhati "," 03042-3104076"
"1 "," 710 "," M Mansha Jat "," 0304-1274413"
"1 "," 711 "," M Maqsood Jat "," 0333-6279913"
"1 "," 712 ","  "," 0333-6279913"
"1 "," 713 "," M Manzoor Jat "," 9509415"
"1 "," 714 "," Shafaqa Ali Jat "," 0302-7734465"
"1 "," 715 "," Shafaqa Ali Jat "," 0302-7734465"
"1 "," 716 "," M Yousaf Jat "," 0302-9395853"
"1 "," 717 "," Liaqat Ali Jat "," 0302-7734465"
"1 "," 718 "," M Abid Jat "," 0308-3198874"
"1 "," 719 "," M Ashiq Jat "," 6852078"
"1 "," 720 "," M Ghafoor jat "," 0301-2796235"
"1 "," 721 "," Shokat Ali Jat "," 0302-7247193"
"1 "," 722 "," Shabir Ahmed Chadhar "," 0307-7932976"
"1 "," 723 "," M Amir Hussain "," 0343-7405076"
"1 "," 724 "," M Nawaz "," 7858852"
"1 "," 725 "," Dur Muhammad "," 0305-5827615"
"1 "," 726 "," M Nawaz Mahar "," 0304-9882376"
"1 "," 727 "," Abdul Aziz Ood "," 0302-6914926"
"1 "," 728 "," Abdul Ghafoor Mahar "," 0304-9044741"
"1 "," 729 "," Noor Ahmed Chadhar "," 0307-2680376"
"1 "," 730 "," Mansab Ali "," 0301-6585876"
"1 "," 731 "," M Tufail "," 0301-7940046"
"1 "," 732 "," Mukhtar Ahmed Mahar "," 0344-7166416"
"1 "," 733 "," Taswar Mahar "," 0301-4847076"
"1 "," 734 "," M Yousaf Chadhar "," 0301-6611171"
"1 "," 735 "," Dur Muhammad "," 0305-5827615"
"1 "," 736 "," Nasir Ahmed Chadhar "," 0307-4609476"
"1 "," 737 "," Aashiq Mahar "," 0301-5869486"
"1 "," 738 "," Gulam Mustafa Arian "," 0302-7945176"
"1 "," 739 "," M Qasim Mahar "," 0302-7945176"
"1 "," 740 "," khazar Hyaat "," 0301-4663958"
"1 "," 741 "," M Riaz Mahar "," 0301-4847076"
"1 "," 742 "," Dr Yasin Jat "," 0300-7724671"
"1 "," 743 "," Noor Gul Khan "," 0346-7838487"
"1 "," 744 "," Faqeer Gul Khan "," 0346-7838487"
"1 "," 745 "," Usman Gul Khan "," 0302-8846376"
"1 "," 746 "," M Amin / Qutab "," 0307-6849076"
"1 "," 747 "," Raja Mazher Hussain "," 0303-7826082"
"1 "," 748 ","  "," 0303-7826082"
"1 "," 749 "," Raja Maqaood jat "," 0301-6571277"
"1 "," 750 ","  "," 0301-6571277"
"1 "," 751 "," Raja Farhat Hussain "," 7934495"
"1 "," 752 "," Raja Javed Iqbal "," 0302-6809860"
"1 "," 753 "," Raja Gulam Abass "," 0302-5400286"
"1 "," 754 "," Raja Abdul Razaq "," 0331-6907660"
"1 "," 755 "," Raja Tariq Mehmood "," 0347-7820038"
"1 "," 756 "," Raja Baber Hussain "," 0300-9359976"
"1 "," 757 ","  "," 0300-9359976"
"1 "," 758 "," Raja Gulam Mustafa "," 0308-8647475"
"1 "," 759 "," Raja Aksar Ali "," 0301-7948619"
"1 "," 760 "," Raja Shoqat Ali "," 0308-7934494"
"1 "," 761 "," Raja Qamer Ul zamaan "," 0303-7838176"
